\relax 
\providecommand\hyper@newdestlabel[2]{}
\citation{RFExplorer}
\citation{RFEPython}
\citation{Rpi}
\@writefile{toc}{\contentsline {chapter}{\numberline {2}Hardware}{3}{chapter.2}\protected@file@percent }
\@writefile{lof}{\addvspace {10\p@ }}
\@writefile{lot}{\addvspace {10\p@ }}
\@writefile{toc}{\contentsline {section}{\numberline {2.1}RF Explorer 3G+ IoT for Raspberry Pi}{3}{section.2.1}\protected@file@percent }
\@writefile{toc}{\contentsline {section}{\numberline {2.2}Raspberry Pi 4 Model B}{3}{section.2.2}\protected@file@percent }
\@writefile{lof}{\contentsline {figure}{\numberline {2.1}{\ignorespaces Diagram illustrating the interconnection of all the components. \relax }}{4}{figure.caption.2}\protected@file@percent }
\providecommand*\caption@xref[2]{\@setref\relax\@undefined{#1}}
\newlabel{F:Diagram}{{2.1}{4}{Diagram illustrating the interconnection of all the components. \relax }{figure.caption.2}{}}
\@writefile{lof}{\contentsline {figure}{\numberline {2.2}{\ignorespaces Diagram illustrating the interconnection of all the components when conducting a accuracy test on the RF Monitor. The signal output by the switch is split into the RF Monitor and the FieldFox RF analyzer.\relax }}{4}{figure.caption.3}\protected@file@percent }
\newlabel{F:Diagram_FF}{{2.2}{4}{Diagram illustrating the interconnection of all the components when conducting a accuracy test on the RF Monitor. The signal output by the switch is split into the RF Monitor and the FieldFox RF analyzer.\relax }{figure.caption.3}{}}
\@writefile{lof}{\contentsline {figure}{\numberline {2.3}{\ignorespaces Relevant components of the RF Explorer: \textbf  {(A)} spectrum analyzer module, \textbf  {(B)} Raspberry Pi connector, \textbf  {(C)} power LED, \textbf  {(D)} SMA connector, \textbf  {(E)} activity LED. \relax }}{5}{figure.caption.4}\protected@file@percent }
\newlabel{F:RFExplorer}{{2.3}{5}{Relevant components of the RF Explorer: \textbf {(A)} spectrum analyzer module, \textbf {(B)} Raspberry Pi connector, \textbf {(C)} power LED, \textbf {(D)} SMA connector, \textbf {(E)} activity LED. \relax }{figure.caption.4}{}}
\@writefile{lof}{\contentsline {figure}{\numberline {2.4}{\ignorespaces Relevant components of the Raspberry Pi: \textbf  {(A)} two USB ports, \textbf  {(B)} ethernet port, \textbf  {(C)} 40 pin header, \textbf  {(D)} micro SD card slot, \textbf  {(E)} USB-C power supply, \textbf  {(F)} micro HDMI port. \relax }}{5}{figure.caption.5}\protected@file@percent }
\newlabel{F:RPi}{{2.4}{5}{Relevant components of the Raspberry Pi: \textbf {(A)} two USB ports, \textbf {(B)} ethernet port, \textbf {(C)} 40 pin header, \textbf {(D)} micro SD card slot, \textbf {(E)} USB-C power supply, \textbf {(F)} micro HDMI port. \relax }{figure.caption.5}{}}
\@writefile{toc}{\contentsline {section}{\numberline {2.3}Antenna SKALA-v2}{5}{section.2.3}\protected@file@percent }
\citation{Switch}
\@writefile{lof}{\contentsline {figure}{\numberline {2.5}{\ignorespaces Relevant components of the antenna: \textbf  {(A)} top channel, \textbf  {(B)} bottom channel. \relax }}{6}{figure.caption.6}\protected@file@percent }
\@writefile{toc}{\contentsline {section}{\numberline {2.4}Solid state switch}{6}{section.2.4}\protected@file@percent }
\citation{Biastee}
\@writefile{lof}{\contentsline {figure}{\numberline {2.6}{\ignorespaces Relevant components of the switch: \textbf  {(A)} RF IN 1, \textbf  {(B)} RF IN 2, \textbf  {(C)} RF OUT, \textbf  {(D)} TTL control, \textbf  {(E)} +5V supply, \textbf  {(E)} -5V supply. \relax }}{7}{figure.caption.7}\protected@file@percent }
\newlabel{F:switch}{{2.6}{7}{Relevant components of the switch: \textbf {(A)} RF IN 1, \textbf {(B)} RF IN 2, \textbf {(C)} RF OUT, \textbf {(D)} TTL control, \textbf {(E)} +5V supply, \textbf {(E)} -5V supply. \relax }{figure.caption.7}{}}
\@writefile{lof}{\contentsline {figure}{\numberline {2.7}{\ignorespaces The device provides a dual power supply of +5V and -5V when connected to the Raspberry Pi via the USB-C port, extracting power from it.\relax }}{7}{figure.caption.8}\protected@file@percent }
\newlabel{F:5Vsupply}{{2.7}{7}{The device provides a dual power supply of +5V and -5V when connected to the Raspberry Pi via the USB-C port, extracting power from it.\relax }{figure.caption.8}{}}
\@writefile{toc}{\contentsline {section}{\numberline {2.5}Bias tee}{7}{section.2.5}\protected@file@percent }
\@writefile{lof}{\contentsline {figure}{\numberline {2.8}{\ignorespaces Relevant parts of the bias tee: \textbf  {(A)} RF output, \textbf  {(B)} DC input ($\sim $ 120 mA), \textbf  {(C)} RF and DC input. \relax }}{8}{figure.caption.9}\protected@file@percent }
\newlabel{F:biastee}{{2.8}{8}{Relevant parts of the bias tee: \textbf {(A)} RF output, \textbf {(B)} DC input ($\sim $ 120 mA), \textbf {(C)} RF and DC input. \relax }{figure.caption.9}{}}
\@setckpt{Hardware}{
\setcounter{page}{9}
\setcounter{equation}{0}
\setcounter{enumi}{0}
\setcounter{enumii}{0}
\setcounter{enumiii}{0}
\setcounter{enumiv}{0}
\setcounter{footnote}{0}
\setcounter{mpfootnote}{0}
\setcounter{part}{0}
\setcounter{chapter}{2}
\setcounter{section}{5}
\setcounter{subsection}{0}
\setcounter{subsubsection}{0}
\setcounter{paragraph}{0}
\setcounter{subparagraph}{0}
\setcounter{figure}{8}
\setcounter{table}{0}
\setcounter{parentequation}{0}
\setcounter{caption@flags}{2}
\setcounter{continuedfloat}{0}
\setcounter{subfigure}{0}
\setcounter{subtable}{0}
\setcounter{float@type}{8}
\setcounter{section@level}{1}
\setcounter{Item}{0}
\setcounter{Hfootnote}{0}
\setcounter{bookmark@seq@number}{7}
\setcounter{lstnumber}{1}
\setcounter{lstlisting}{0}
}
