\relax 
\providecommand\hyper@newdestlabel[2]{}
\@writefile{toc}{\contentsline {chapter}{\numberline {4}Results}{17}{chapter.4}\protected@file@percent }
\@writefile{lof}{\addvspace {10\p@ }}
\@writefile{lot}{\addvspace {10\p@ }}
\@writefile{toc}{\contentsline {section}{\numberline {4.1}Test with signal generator}{17}{section.4.1}\protected@file@percent }
\@writefile{lof}{\contentsline {figure}{\numberline {4.1}{\ignorespaces The RF Monitor was connected to a signal generator, delivering a 100 MHz signal to the Top channel and a 200 MHz signal to the Bottom channel.\relax }}{17}{figure.caption.12}\protected@file@percent }
\newlabel{F:SignalGen}{{4.1}{17}{The RF Monitor was connected to a signal generator, delivering a 100 MHz signal to the Top channel and a 200 MHz signal to the Bottom channel.\relax }{figure.caption.12}{}}
\@writefile{toc}{\contentsline {section}{\numberline {4.2}Test splitting the signal with FieldFox}{17}{section.4.2}\protected@file@percent }
\@writefile{lof}{\contentsline {figure}{\numberline {4.2}{\ignorespaces Measurements of the Top and Bottom channel. Each channel was measured at the same time by the RF Monitor and the FieldFox.\relax }}{18}{figure.caption.13}\protected@file@percent }
\newlabel{F:FF_test}{{4.2}{18}{Measurements of the Top and Bottom channel. Each channel was measured at the same time by the RF Monitor and the FieldFox.\relax }{figure.caption.13}{}}
\@writefile{lof}{\contentsline {figure}{\numberline {4.3}{\ignorespaces Measurements of the Top and Bottom channel captured by the RF Monitor.\relax }}{18}{figure.caption.14}\protected@file@percent }
\newlabel{F:FF_test_both}{{4.3}{18}{Measurements of the Top and Bottom channel captured by the RF Monitor.\relax }{figure.caption.14}{}}
\@setckpt{Results}{
\setcounter{page}{19}
\setcounter{equation}{0}
\setcounter{enumi}{3}
\setcounter{enumii}{0}
\setcounter{enumiii}{0}
\setcounter{enumiv}{0}
\setcounter{footnote}{0}
\setcounter{mpfootnote}{0}
\setcounter{part}{0}
\setcounter{chapter}{4}
\setcounter{section}{2}
\setcounter{subsection}{0}
\setcounter{subsubsection}{0}
\setcounter{paragraph}{0}
\setcounter{subparagraph}{0}
\setcounter{figure}{3}
\setcounter{table}{0}
\setcounter{parentequation}{0}
\setcounter{caption@flags}{2}
\setcounter{continuedfloat}{0}
\setcounter{subfigure}{0}
\setcounter{subtable}{0}
\setcounter{float@type}{8}
\setcounter{section@level}{1}
\setcounter{Item}{3}
\setcounter{Hfootnote}{0}
\setcounter{bookmark@seq@number}{20}
\setcounter{lstnumber}{1}
\setcounter{lstlisting}{0}
}
