\relax 
\providecommand\babel@aux[2]{}
\@nameuse{bbl@beforestart}
\providecommand\hyper@newdestlabel[2]{}
\providecommand\HyperFirstAtBeginDocument{\AtBeginDocument}
\HyperFirstAtBeginDocument{\ifx\hyper@anchor\@undefined
\global\let\oldnewlabel\newlabel
\gdef\newlabel#1#2{\newlabelxx{#1}#2}
\gdef\newlabelxx#1#2#3#4#5#6{\oldnewlabel{#1}{{#2}{#3}}}
\AtEndDocument{\ifx\hyper@anchor\@undefined
\let\newlabel\oldnewlabel
\fi}
\fi}
\global\let\hyper@last\relax 
\gdef\HyperFirstAtBeginDocument#1{#1}
\providecommand\HyField@AuxAddToFields[1]{}
\providecommand\HyField@AuxAddToCoFields[2]{}
\babel@aux{spanish}{}
\@input{Introduction.aux}
\@input{Hardware.aux}
\@input{Software.aux}
\@input{Results.aux}
\bibdata{./biblioTomo.bib}
\bibcite{RFExplorer}{1}
\bibcite{RFEPython}{2}
\bibcite{Rpi}{3}
\bibcite{Switch}{4}
\bibcite{Biastee}{5}
\bibstyle{unsrt}
\gdef \@abspage@last{23}
