

\tikzset{every picture/.style={line width=0.75pt}} %set default line width to 0.75pt        

\begin{tikzpicture}[x=0.75pt,y=0.75pt,yscale=-1,xscale=1]
%uncomment if require: \path (0,309); %set diagram left start at 0, and has height of 309

%Flowchart: Terminator [id:dp11851270391387536] 
\draw  [color={rgb, 255:red, 74; green, 74; blue, 74 }  ,draw opacity=1 ] (463.33,238.56) -- (484.5,238.56) .. controls (487.26,238.56) and (489.49,240.76) .. (489.49,243.47) .. controls (489.49,246.18) and (487.26,248.38) .. (484.5,248.38) -- (463.33,248.38) .. controls (460.57,248.38) and (458.34,246.18) .. (458.34,243.47) .. controls (458.34,240.76) and (460.57,238.56) .. (463.33,238.56) -- cycle ;
%Flowchart: Terminator [id:dp46077945154141087] 
\draw  [color={rgb, 255:red, 74; green, 74; blue, 74 }  ,draw opacity=1 ] (498.3,221.14) -- (516.31,221.14) .. controls (518.65,221.14) and (520.54,223.18) .. (520.54,225.68) .. controls (520.54,228.19) and (518.65,230.22) .. (516.31,230.22) -- (498.3,230.22) .. controls (495.96,230.22) and (494.07,228.19) .. (494.07,225.68) .. controls (494.07,223.18) and (495.96,221.14) .. (498.3,221.14) -- cycle ;
%Flowchart: Terminator [id:dp9497599021324443] 
\draw  [color={rgb, 255:red, 74; green, 74; blue, 74 }  ,draw opacity=1 ] (471.26,204.62) -- (485.27,204.62) .. controls (487.1,204.62) and (488.57,206.32) .. (488.57,208.42) .. controls (488.57,210.51) and (487.1,212.21) .. (485.27,212.21) -- (471.26,212.21) .. controls (469.44,212.21) and (467.96,210.51) .. (467.96,208.42) .. controls (467.96,206.32) and (469.44,204.62) .. (471.26,204.62) -- cycle ;
%Flowchart: Terminator [id:dp6794556716152691] 
\draw  [color={rgb, 255:red, 74; green, 74; blue, 74 }  ,draw opacity=1 ][line width=0.75]  (496.54,191.67) -- (509,191.67) .. controls (510.62,191.67) and (511.93,193.07) .. (511.93,194.8) .. controls (511.93,196.53) and (510.62,197.93) .. (509,197.93) -- (496.54,197.93) .. controls (494.92,197.93) and (493.61,196.53) .. (493.61,194.8) .. controls (493.61,193.07) and (494.92,191.67) .. (496.54,191.67) -- cycle ;
%Straight Lines [id:da22172746486621508] 
\draw [color={rgb, 255:red, 0; green, 0; blue, 0 }  ,draw opacity=1 ][fill={rgb, 255:red, 155; green, 155; blue, 155 }  ,fill opacity=1 ]   (486.89,174.56) -- (450.56,291.25) ;
%Straight Lines [id:da26470159363128853] 
\draw [color={rgb, 255:red, 0; green, 0; blue, 0 }  ,draw opacity=1 ][fill={rgb, 255:red, 155; green, 155; blue, 155 }  ,fill opacity=1 ]   (491.17,174.56) -- (454.83,291.25) ;
%Straight Lines [id:da31877922681079285] 
\draw    (486.89,174.56) -- (491.17,174.56) ;
%Straight Lines [id:da46405728474304053] 
\draw [color={rgb, 255:red, 0; green, 0; blue, 0 }  ,draw opacity=1 ][fill={rgb, 255:red, 155; green, 155; blue, 155 }  ,fill opacity=1 ]   (450.56,291.25) -- (454.83,291.25) ;
%Straight Lines [id:da2831551976513459] 
\draw    (533,290.8) -- (495.72,174.82) ;
%Straight Lines [id:da3649594624722763] 
\draw    (528.42,290.8) -- (491.17,174.56) ;
%Straight Lines [id:da34157633819458555] 
\draw    (491.17,174.56) -- (495.72,174.82) ;
%Straight Lines [id:da19321344781550587] 
\draw    (528.45,290.54) -- (533,290.8) ;
%Straight Lines [id:da48569510891516443] 
\draw    (489.03,182.3) -- (489.95,297.5) ;
%Straight Lines [id:da21970663533263546] 
\draw    (493.61,182.3) -- (494.53,297.5) ;
%Straight Lines [id:da6937506171052876] 
\draw    (494.53,297.5) -- (489.95,297.5) ;
%Straight Lines [id:da2724622742309011] 
\draw    (490.4,165.33) -- (488.42,174.56) ;
%Straight Lines [id:da5514000493063843] 
\draw    (492.69,165.33) -- (494.8,174.82) ;
%Straight Lines [id:da08201772127841556] 
\draw    (490.4,165.33) -- (492.69,165.33) ;
%Flowchart: Terminator [id:dp6618916205112922] 
\draw  [color={rgb, 255:red, 74; green, 74; blue, 74 }  ,draw opacity=1 ][line width=0.75]  (474.1,191.23) -- (486.56,191.23) .. controls (488.18,191.23) and (489.49,192.63) .. (489.49,194.35) .. controls (489.49,196.08) and (488.18,197.48) .. (486.56,197.48) -- (474.1,197.48) .. controls (472.48,197.48) and (471.17,196.08) .. (471.17,194.35) .. controls (471.17,192.63) and (472.48,191.23) .. (474.1,191.23) -- cycle ;
%Flowchart: Terminator [id:dp2755754981716233] 
\draw  [color={rgb, 255:red, 74; green, 74; blue, 74 }  ,draw opacity=1 ] (497.37,204.62) -- (511.38,204.62) .. controls (513.2,204.62) and (514.68,206.32) .. (514.68,208.42) .. controls (514.68,210.51) and (513.2,212.21) .. (511.38,212.21) -- (497.37,212.21) .. controls (495.54,212.21) and (494.07,210.51) .. (494.07,208.42) .. controls (494.07,206.32) and (495.54,204.62) .. (497.37,204.62) -- cycle ;
%Flowchart: Terminator [id:dp476727244560306] 
\draw  [color={rgb, 255:red, 74; green, 74; blue, 74 }  ,draw opacity=1 ] (467.16,221.14) -- (485.16,221.14) .. controls (487.5,221.14) and (489.4,223.18) .. (489.4,225.68) .. controls (489.4,228.19) and (487.5,230.22) .. (485.16,230.22) -- (467.16,230.22) .. controls (464.82,230.22) and (462.92,228.19) .. (462.92,225.68) .. controls (462.92,223.18) and (464.82,221.14) .. (467.16,221.14) -- cycle ;
%Flowchart: Terminator [id:dp9039433959947254] 
\draw  [color={rgb, 255:red, 74; green, 74; blue, 74 }  ,draw opacity=1 ] (499.05,238.11) -- (520.23,238.11) .. controls (522.98,238.11) and (525.21,240.31) .. (525.21,243.02) .. controls (525.21,245.74) and (522.98,247.94) .. (520.23,247.94) -- (499.05,247.94) .. controls (496.3,247.94) and (494.07,245.74) .. (494.07,243.02) .. controls (494.07,240.31) and (496.3,238.11) .. (499.05,238.11) -- cycle ;
%Flowchart: Terminator [id:dp4674848253551116] 
\draw  [color={rgb, 255:red, 74; green, 74; blue, 74 }  ,draw opacity=1 ] (457.63,255.08) -- (483.79,255.08) .. controls (487.19,255.08) and (489.95,257.68) .. (489.95,260.89) .. controls (489.95,264.09) and (487.19,266.69) .. (483.79,266.69) -- (457.63,266.69) .. controls (454.23,266.69) and (451.47,264.09) .. (451.47,260.89) .. controls (451.47,257.68) and (454.23,255.08) .. (457.63,255.08) -- cycle ;
%Flowchart: Terminator [id:dp48587573987048194] 
\draw  [color={rgb, 255:red, 74; green, 74; blue, 74 }  ,draw opacity=1 ] (500.68,255.53) -- (526.84,255.53) .. controls (530.24,255.53) and (533,258.13) .. (533,261.33) .. controls (533,264.54) and (530.24,267.14) .. (526.84,267.14) -- (500.68,267.14) .. controls (497.28,267.14) and (494.53,264.54) .. (494.53,261.33) .. controls (494.53,258.13) and (497.28,255.53) .. (500.68,255.53) -- cycle ;

%Straight Lines [id:da7925589112580023] 
\draw [color={rgb, 255:red, 208; green, 2; blue, 27 }  ,draw opacity=1 ]   (410,174.5) -- (486.89,174.56) ;
%Straight Lines [id:da5074990459518584] 
\draw [color={rgb, 255:red, 8; green, 54; blue, 207 }  ,draw opacity=1 ]   (530.66,175) -- (495.72,174.82) ;
%Straight Lines [id:da9294874557617571] 
\draw [color={rgb, 255:red, 8; green, 54; blue, 207 }  ,draw opacity=1 ]   (531.25,110.53) -- (530.66,175) ;
%Straight Lines [id:da2170197652562187] 
\draw [color={rgb, 255:red, 8; green, 54; blue, 207 }  ,draw opacity=1 ]   (410,110.5) -- (531.25,110.53) ;
%Shape: Frame [id:dp3641558018906784] 
\draw   (374.94,95.05) -- (409.44,95.05) -- (409.44,129.87) -- (374.94,129.87) -- cycle(405.33,99.16) -- (379.05,99.16) -- (379.05,125.76) -- (405.33,125.76) -- cycle ;
%Straight Lines [id:da1094835640853078] 
\draw [color={rgb, 255:red, 8; green, 54; blue, 207 }  ,draw opacity=1 ]   (328.68,111.73) -- (375.53,111.82) ;
%Straight Lines [id:da8660138107387608] 
\draw [color={rgb, 255:red, 208; green, 2; blue, 27 }  ,draw opacity=1 ]   (326.5,174) -- (375.11,174.2) ;
%Shape: Frame [id:dp4130335188198784] 
\draw   (326.6,101.5) -- (326.6,185.32) -- (271.63,185.32) -- (271.63,101.5) -- cycle(321.1,179.82) -- (321.1,107) -- (277.13,107) -- (277.13,179.82) -- cycle ;
%Shape: Frame [id:dp166730027027866] 
\draw   (375.03,158.88) -- (409.52,158.88) -- (409.52,193.7) -- (375.03,193.7) -- cycle(405.42,162.99) -- (379.13,162.99) -- (379.13,189.59) -- (405.42,189.59) -- cycle ;
%Straight Lines [id:da6377556385833391] 
\draw    (134,170.5) -- (270.72,170.39) ;
%Straight Lines [id:da4919439618726864] 
\draw    (215,112) -- (271.63,112.46) ;
%Shape: Frame [id:dp8076862119014285] 
\draw   (157,88.61) -- (214.42,88.61) -- (214.42,140.18) -- (157,140.18) -- cycle(208.28,94.75) -- (163.14,94.75) -- (163.14,134.04) -- (208.28,134.04) -- cycle ;
%Straight Lines [id:da20643460016840653] 
\draw    (299.7,82.8) -- (299.7,101.5) ;
%Straight Lines [id:da9463852484794715] 
\draw    (293.85,82.16) -- (306.13,82.16) ;
%Straight Lines [id:da3199142496576738] 
\draw    (296.19,78.29) -- (303.79,78.29) ;
%Straight Lines [id:da5413712310446132] 
\draw    (300.81,204.03) -- (300.61,185.33) ;
%Straight Lines [id:da8765533419618479] 
\draw    (306.66,204.6) -- (294.39,204.76) ;
%Straight Lines [id:da3010455279819173] 
\draw    (304.37,208.5) -- (296.77,208.6) ;
%Straight Lines [id:da346825177582331] 
\draw    (134,170.5) -- (134,137) ;
%Straight Lines [id:da4039899112252543] 
\draw    (391.9,75.71) -- (391.9,94.41) ;
%Straight Lines [id:da8502053955754036] 
\draw    (386.05,75.07) -- (398.33,75.07) ;
%Straight Lines [id:da11493706521182867] 
\draw    (388.39,71.2) -- (395.99,71.2) ;
%Straight Lines [id:da5857045198932375] 
\draw    (392.57,213.04) -- (392.57,194.34) ;
%Straight Lines [id:da5567395570035699] 
\draw    (386.72,213.68) -- (399,213.68) ;
%Straight Lines [id:da9047371596811097] 
\draw    (389.06,217.55) -- (396.66,217.55) ;
%Shape: Rectangle [id:dp6573406144129679] 
\draw   (107.5,80) -- (221,80) -- (221,149) -- (107.5,149) -- cycle ;
%Flowchart: Connector [id:dp8270616945340906] 
\draw  [fill={rgb, 255:red, 8; green, 54; blue, 207 }  ,fill opacity=1 ] (324.5,111.73) .. controls (324.5,110.5) and (325.44,109.5) .. (326.59,109.5) .. controls (327.75,109.5) and (328.68,110.5) .. (328.68,111.73) .. controls (328.68,112.96) and (327.75,113.96) .. (326.59,113.96) .. controls (325.44,113.96) and (324.5,112.96) .. (324.5,111.73) -- cycle ;
%Flowchart: Connector [id:dp22943182933037187] 
\draw  [fill={rgb, 255:red, 182; green, 26; blue, 47 }  ,fill opacity=1 ] (324.5,173.73) .. controls (324.5,172.5) and (325.44,171.5) .. (326.59,171.5) .. controls (327.75,171.5) and (328.68,172.5) .. (328.68,173.73) .. controls (328.68,174.96) and (327.75,175.96) .. (326.59,175.96) .. controls (325.44,175.96) and (324.5,174.96) .. (324.5,173.73) -- cycle ;
%Flowchart: Connector [id:dp7834579449934042] 
\draw  [fill={rgb, 255:red, 74; green, 74; blue, 74 }  ,fill opacity=1 ] (269.54,112.46) .. controls (269.54,111.23) and (270.48,110.23) .. (271.63,110.23) .. controls (272.79,110.23) and (273.73,111.23) .. (273.73,112.46) .. controls (273.73,113.69) and (272.79,114.69) .. (271.63,114.69) .. controls (270.48,114.69) and (269.54,113.69) .. (269.54,112.46) -- cycle ;
%Flowchart: Connector [id:dp3592912949216245] 
\draw  [fill={rgb, 255:red, 74; green, 74; blue, 74 }  ,fill opacity=1 ] (269.54,170.46) .. controls (269.54,169.23) and (270.48,168.23) .. (271.63,168.23) .. controls (272.79,168.23) and (273.73,169.23) .. (273.73,170.46) .. controls (273.73,171.69) and (272.79,172.69) .. (271.63,172.69) .. controls (270.48,172.69) and (269.54,171.69) .. (269.54,170.46) -- cycle ;
%Shape: Donut [id:dp8308027070806085] 
\draw   (132.8,137) .. controls (132.8,136.34) and (133.34,135.8) .. (134,135.8) .. controls (134.66,135.8) and (135.2,136.34) .. (135.2,137) .. controls (135.2,137.66) and (134.66,138.2) .. (134,138.2) .. controls (133.34,138.2) and (132.8,137.66) .. (132.8,137)(131,137) .. controls (131,135.34) and (132.34,134) .. (134,134) .. controls (135.66,134) and (137,135.34) .. (137,137) .. controls (137,138.66) and (135.66,140) .. (134,140) .. controls (132.34,140) and (131,138.66) .. (131,137) ;

% Text Node
\draw (515.64,177.8) node [anchor=north west][inner sep=0.75pt]   [align=left] {\textcolor[rgb]{0.03,0.21,0.81}{{\scriptsize Top}}};
% Text Node
\draw (441.16,177.8) node [anchor=north west][inner sep=0.75pt]   [align=left] {{\scriptsize \textcolor[rgb]{1,0.06,0.08}{Bottom}}};
% Text Node
\draw (381.4,102.63) node [anchor=north west][inner sep=0.5pt]   [align=left] {{\scriptsize Bias}};
\draw (384.4,112.63) node [anchor=north west][inner sep=0.5pt]   [align=left] {{\scriptsize tee}};

% Text Node
\draw (380.99,166.75) node [anchor=north west][inner sep=0.5pt]   [align=left] {{\scriptsize Bias}};
\draw (383.99,176.75) node [anchor=north west][inner sep=0.5pt]   [align=left] {{\scriptsize tee}};


% Text Node
\draw (283.03,132.57) node [anchor=north west][inner sep=0.75pt]   [align=left] {\begin{minipage}[lt]{24.76pt}\setlength\topsep{0pt}
\begin{center}
{\scriptsize Switch}
\end{center}

\end{minipage}};
% Text Node
\draw (241.63,174.68) node [anchor=north west][inner sep=0.75pt]   [align=left] {{\scriptsize TTL}};
% Text Node
\draw (164.12,100.47) node [anchor=north west][inner sep=0.75pt]   [align=left] {\begin{minipage}[lt]{30.58pt}\setlength\topsep{0pt}
\begin{center}
{\scriptsize RF}\\{\scriptsize Explorer}
\end{center}

\end{minipage}};
% Text Node
\draw (288.29,62.04) node [anchor=north west][inner sep=0.75pt]   [align=left] {{\scriptsize -5 V}};
% Text Node
\draw (288.31,216.91) node [anchor=north west][inner sep=0.75pt]   [align=left] {{\scriptsize +5 V}};
% Text Node
\draw (376.31,54.16) node [anchor=north west][inner sep=0.75pt]   [align=left] {{\scriptsize +4.5 V}};
% Text Node
\draw (377.4,220.51) node [anchor=north west][inner sep=0.75pt]   [align=left] {{\scriptsize +4.5 V}};
% Text Node
\draw (124.23,111.61) node [anchor=north west][inner sep=0.75pt]  [font=\scriptsize] [align=left] {RPi};

% Text Node
\draw (332.6,88) node [anchor=north west][inner sep=0.75pt]   [align=left] {{\scriptsize RF}};
% Text Node
\draw (328.6,98) node [anchor=north west][inner sep=0.75pt]   [align=left] {{\scriptsize IN 1}};

% Text Node
\draw (332.6,177) node [anchor=north west][inner sep=0.75pt]   [align=left] {{\scriptsize RF}};
% Text Node
\draw (328.6,187) node [anchor=north west][inner sep=0.75pt]   [align=left] {{\scriptsize IN 2}};

% Text Node
\draw (244.5,88) node [anchor=north west][inner sep=0.75pt]   [align=left] {{\scriptsize RF}};
% Text Node
\draw (240.5,98) node [anchor=north west][inner sep=0.75pt]   [align=left] {{\scriptsize OUT}};



\end{tikzpicture}