\relax 
\providecommand\hyper@newdestlabel[2]{}
\@writefile{toc}{\contentsline {chapter}{\numberline {3}Software}{9}{chapter.3}\protected@file@percent }
\@writefile{lof}{\addvspace {10\p@ }}
\@writefile{lot}{\addvspace {10\p@ }}
\@writefile{toc}{\contentsline {section}{\numberline {3.1}RFETouch: Raspbian OS image for Raspberry Pi 4B}{9}{section.3.1}\protected@file@percent }
\@writefile{toc}{\contentsline {section}{\numberline {3.2}RFExplorer Python library}{10}{section.3.2}\protected@file@percent }
\@writefile{toc}{\contentsline {section}{\numberline {3.3}RF Monitor's custom code}{10}{section.3.3}\protected@file@percent }
\@writefile{lof}{\contentsline {figure}{\numberline {3.1}{\ignorespaces Example of how to execute the script after SSHing into the Raspberry Pi.\relax }}{11}{figure.caption.10}\protected@file@percent }
\newlabel{F:ssh}{{3.1}{11}{Example of how to execute the script after SSHing into the Raspberry Pi.\relax }{figure.caption.10}{}}
\@writefile{toc}{\contentsline {subsection}{\numberline {3.3.1}Initialization}{11}{subsection.3.3.1}\protected@file@percent }
\@writefile{lot}{\contentsline {table}{\numberline {3.1}{\ignorespaces Timetable of the processes in the code.\relax }}{12}{table.caption.11}\protected@file@percent }
\newlabel{tab:timetable}{{3.1}{12}{Timetable of the processes in the code.\relax }{table.caption.11}{}}
\@writefile{toc}{\contentsline {subsection}{\numberline {3.3.2}Connecting to RF Explorer}{13}{subsection.3.3.2}\protected@file@percent }
\@writefile{toc}{\contentsline {subsection}{\numberline {3.3.3}Setting up the measurement process}{14}{subsection.3.3.3}\protected@file@percent }
\@writefile{toc}{\contentsline {subsection}{\numberline {3.3.4}Acquiring RF data}{14}{subsection.3.3.4}\protected@file@percent }
\@writefile{toc}{\contentsline {subsection}{\numberline {3.3.5}Data processing and saving}{16}{subsection.3.3.5}\protected@file@percent }
\@writefile{toc}{\contentsline {subsection}{\numberline {3.3.6}Cleanup}{16}{subsection.3.3.6}\protected@file@percent }
\@setckpt{Software}{
\setcounter{page}{17}
\setcounter{equation}{0}
\setcounter{enumi}{3}
\setcounter{enumii}{0}
\setcounter{enumiii}{0}
\setcounter{enumiv}{0}
\setcounter{footnote}{0}
\setcounter{mpfootnote}{0}
\setcounter{part}{0}
\setcounter{chapter}{3}
\setcounter{section}{3}
\setcounter{subsection}{6}
\setcounter{subsubsection}{0}
\setcounter{paragraph}{0}
\setcounter{subparagraph}{0}
\setcounter{figure}{1}
\setcounter{table}{1}
\setcounter{parentequation}{0}
\setcounter{caption@flags}{2}
\setcounter{continuedfloat}{0}
\setcounter{subfigure}{0}
\setcounter{subtable}{0}
\setcounter{float@type}{8}
\setcounter{section@level}{2}
\setcounter{Item}{3}
\setcounter{Hfootnote}{0}
\setcounter{bookmark@seq@number}{17}
\setcounter{lstnumber}{1}
\setcounter{lstlisting}{0}
}
