! FILETYPE CSV
! VERSION 3.0,1
! TIMESTAMP Saturday, 23 September 2023 04:29:40
! TIMEZONE (UTC+08:00) Kuala Lumpur, Singapore
! NAME Keysight Technologies
! MODEL N9913B
! SERIAL MY61262579
! FIRMWARE_VERSION A.12.20
! CORRECTION 
! Application SA
! SA Frequency Scan
!  CenterFreq 275000000
!  SpanFreq 450000000
!  Num TracePoints 1001
!  ResolutionBW 3000000
!  VideoBW 3000000
!  RF Attenuation 15
!  Preamp OFF
!  External Gain 0
!  Detector Positive
!  TraceAvgCount 1 / 1
! Trace TIMESTAMP: 2023-09-23 04:29:40Z
! Trace GPS Info...
! GPS Latitude: 
! GPS Longitude: 
! GPS Elevation (m): 
! GPS Seconds Since Last Read: 
! CHECKSUM 2111613093
! DATA Freq,SA Clear-Write,SA Blank,SA Blank,SA Blank
! FREQ UNIT Hz
! DATA UNIT dBm
BEGIN
50000000,-9.57152392260468,0,0,0
50450000,-27.3540011814328,0,0,0
50900000,-39.1507495590553,0,0,0
51350000,-29.4421232064919,0,0,0
51800000,-16.6767493151171,0,0,0
52250000,-15.3989132828715,0,0,0
52700000,-45.666040325586,0,0,0
53150000,-33.800456060305,0,0,0
53600000,-16.077526200365,0,0,0
54050000,-48.8205555451254,0,0,0
54500000,-24.5754732629089,0,0,0
54950000,-30.4987805973692,0,0,0
55400000,-47.6237334553857,0,0,0
55850000,-25.8744741485271,0,0,0
56300000,-31.6637628937753,0,0,0
56750000,-22.3245559308822,0,0,0
57200000,-30.5212625598173,0,0,0
57650000,-24.9683024816998,0,0,0
58100000,-39.3210776092859,0,0,0
58550000,-10.673489219926,0,0,0
59000000,-42.7187280811282,0,0,0
59450000,-42.5079645075478,0,0,0
59900000,-40.6650989590784,0,0,0
60350000,-39.5930888484086,0,0,0
60800000,-38.5862878481318,0,0,0
61250000,-17.2273800647652,0,0,0
61700000,-29.0915716152424,0,0,0
62150000,-25.7996221837364,0,0,0
62600000,-15.6183146880243,0,0,0
63050000,-31.9388339019587,0,0,0
63500000,-29.2624383955565,0,0,0
63950000,-23.3889746954175,0,0,0
64400000,-28.2936685860549,0,0,0
64850000,-18.1466374311363,0,0,0
65300000,-23.5231599117682,0,0,0
65750000,-21.5694224854715,0,0,0
66200000,-20.3333571526743,0,0,0
66650000,-24.496201325632,0,0,0
67100000,-18.3130002909807,0,0,0
67550000,-12.4451882686847,0,0,0
68000000,-34.7081877845094,0,0,0
68450000,-25.0028947474397,0,0,0
68900000,-18.3903481211559,0,0,0
69350000,-24.954365318046,0,0,0
69800000,-17.8557305033374,0,0,0
70250000,-34.8240781990127,0,0,0
70700000,-16.9209882968805,0,0,0
71150000,-23.3410743846106,0,0,0
71600000,-44.8095925256631,0,0,0
72050000,-29.4755351669516,0,0,0
72500000,-42.645435232454,0,0,0
72950000,-18.9134522367407,0,0,0
73400000,-6.03635975295134,0,0,0
73850000,-12.388690738721,0,0,0
74300000,-8.03488025187915,0,0,0
74750000,-32.1585579492968,0,0,0
75200000,-26.2836558946368,0,0,0
75650000,-19.2050663076982,0,0,0
76100000,-21.056492861972,0,0,0
76550000,-21.8557076539921,0,0,0
77000000,-36.3133332721043,0,0,0
77450000,-29.9529592710131,0,0,0
77900000,-8.81647293847544,0,0,0
78350000,-27.2897828347741,0,0,0
78800000,-30.4829215933698,0,0,0
79250000,-29.9544926685311,0,0,0
79700000,-32.9784381918938,0,0,0
80150000,-33.1428555937719,0,0,0
80600000,-21.522935516758,0,0,0
81050000,-23.0640986247274,0,0,0
81500000,-13.1345748874017,0,0,0
81950000,-24.4107725878282,0,0,0
82400000,-46.3286296135445,0,0,0
82850000,-47.5872169222246,0,0,0
83300000,-20.5222549153134,0,0,0
83750000,-38.0952688372687,0,0,0
84200000,-32.4595911148117,0,0,0
84650000,-41.7190394955062,0,0,0
85100000,-36.3259266713179,0,0,0
85550000,-41.9318201380459,0,0,0
86000000,-30.9857635697181,0,0,0
86450000,-25.8783949596251,0,0,0
86900000,-16.5879805086247,0,0,0
87350000,-24.3556388322416,0,0,0
87800000,-20.5891447811471,0,0,0
88250000,-16.6612302311719,0,0,0
88700000,-13.1161174912152,0,0,0
89150000,-10.3132502110705,0,0,0
89600000,-12.1861556108192,0,0,0
90050000,-7.80698918726542,0,0,0
90500000,-6.51492232830893,0,0,0
90950000,-5.70763342881028,0,0,0
91400000,-7.39561665355684,0,0,0
91850000,-9.70690331781504,0,0,0
92300000,-5.56639901724231,0,0,0
92750000,-6.49890169054516,0,0,0
93200000,-18.0783881818892,0,0,0
93650000,-15.0193928865734,0,0,0
94100000,-22.8946576401525,0,0,0
94550000,-14.5522874181734,0,0,0
95000000,-17.8190386314356,0,0,0
95450000,-21.672138316903,0,0,0
95900000,-19.7644253100528,0,0,0
96350000,-24.4737656333179,0,0,0
96800000,-16.6472568375189,0,0,0
97250000,-30.9920003435983,0,0,0
97700000,-36.7190049768034,0,0,0
98150000,-23.2451419701315,0,0,0
98600000,-21.4189397352345,0,0,0
99050000,-34.8215442343988,0,0,0
99500000,-35.4073751962137,0,0,0
99950000,-17.5191801003298,0,0,0
100400000,-30.7542367410058,0,0,0
100850000,-26.7569921977237,0,0,0
101300000,-29.3166372091919,0,0,0
101750000,-23.5950556865304,0,0,0
102200000,-35.4879738211278,0,0,0
102650000,-35.4871886445498,0,0,0
103100000,-37.6220419781881,0,0,0
103550000,-25.2651354781775,0,0,0
104000000,-31.7154676755131,0,0,0
104450000,-33.0423666323493,0,0,0
104900000,-39.5453861506142,0,0,0
105350000,-27.9532191566509,0,0,0
105800000,-33.6056566637434,0,0,0
106250000,-31.8563673503077,0,0,0
106700000,-42.4142151677201,0,0,0
107150000,-38.2171783754773,0,0,0
107600000,-41.0906411173708,0,0,0
108050000,-35.9064496367121,0,0,0
108500000,-35.0799918464915,0,0,0
108950000,-27.7998513453035,0,0,0
109400000,-27.5877101655294,0,0,0
109850000,-43.5262779949323,0,0,0
110300000,-24.6390952970964,0,0,0
110750000,-30.9824232329887,0,0,0
111200000,-32.9503527431273,0,0,0
111650000,-26.8298549404137,0,0,0
112100000,-39.6698143936935,0,0,0
112550000,-33.8945754993702,0,0,0
113000000,-31.6566802720901,0,0,0
113450000,-30.1925401763471,0,0,0
113900000,-34.7615629129304,0,0,0
114350000,-41.9418777477243,0,0,0
114800000,-37.1464559631019,0,0,0
115250000,-33.4305723534778,0,0,0
115700000,-37.4360733827912,0,0,0
116150000,-36.2950684963015,0,0,0
116600000,-35.4460499508096,0,0,0
117050000,-44.1042848901748,0,0,0
117500000,-18.4436875700142,0,0,0
117950000,-18.7063729015527,0,0,0
118400000,-29.7715140008011,0,0,0
118850000,-44.1875793983174,0,0,0
119300000,-29.835440975092,0,0,0
119750000,-41.198554194343,0,0,0
120200000,-24.2316726805492,0,0,0
120650000,-26.3756208593089,0,0,0
121100000,-35.3984992156617,0,0,0
121550000,-40.4422557493973,0,0,0
122000000,-32.8404214532023,0,0,0
122450000,-25.8106417621523,0,0,0
122900000,-43.0258927257584,0,0,0
123350000,-25.1977680902363,0,0,0
123800000,-34.1384904219206,0,0,0
124250000,-32.0065943450989,0,0,0
124700000,-34.9094814755336,0,0,0
125150000,-29.6107123836622,0,0,0
125600000,-21.4356040761081,0,0,0
126050000,-30.2048923633396,0,0,0
126500000,-35.9087471920987,0,0,0
126950000,-27.2681169122539,0,0,0
127400000,-32.0772949990995,0,0,0
127850000,-22.3658315335715,0,0,0
128300000,-44.1374591950349,0,0,0
128750000,-21.9705698053816,0,0,0
129200000,-38.8063784040296,0,0,0
129650000,-39.877498524759,0,0,0
130100000,-23.6436704967975,0,0,0
130550000,-32.9802449081019,0,0,0
131000000,-30.4870944261709,0,0,0
131450000,-43.1349504596345,0,0,0
131900000,-38.5623469074953,0,0,0
132350000,-27.5582393776453,0,0,0
132800000,-33.1462206698106,0,0,0
133250000,-19.3365121238106,0,0,0
133700000,-32.5536093328515,0,0,0
134150000,-43.0456891591884,0,0,0
134600000,-37.3235194270133,0,0,0
135050000,-35.4593170922406,0,0,0
135500000,-34.9586835889981,0,0,0
135950000,-39.3525957941025,0,0,0
136400000,-45.5899680321642,0,0,0
136850000,-38.9670191858091,0,0,0
137300000,-27.0712014565787,0,0,0
137750000,-42.5646931580166,0,0,0
138200000,-35.3380578534852,0,0,0
138650000,-37.8899797503314,0,0,0
139100000,-35.5660020071948,0,0,0
139550000,-42.5948105965405,0,0,0
140000000,-38.6961380402922,0,0,0
140450000,-39.8349151848084,0,0,0
140900000,-49.118369363806,0,0,0
141350000,-35.2406031728428,0,0,0
141800000,-28.5178106923264,0,0,0
142250000,-30.7182791557957,0,0,0
142700000,-43.8739333993993,0,0,0
143150000,-34.9030214125285,0,0,0
143600000,-36.9657453589121,0,0,0
144050000,-32.9517649899416,0,0,0
144500000,-40.1573830670429,0,0,0
144950000,-33.2825455239069,0,0,0
145400000,-27.1377425963367,0,0,0
145850000,-43.5671480268969,0,0,0
146300000,-28.3661528614781,0,0,0
146750000,-28.1651264263806,0,0,0
147200000,-36.9864272845072,0,0,0
147650000,-38.9595555097475,0,0,0
148100000,-37.0838715477094,0,0,0
148550000,-32.0197182556528,0,0,0
149000000,-30.1929679720338,0,0,0
149450000,-33.8274232653636,0,0,0
149900000,-27.1505499054022,0,0,0
150350000,-46.6804392165898,0,0,0
150800000,-31.4254680843421,0,0,0
151250000,-33.3390900844937,0,0,0
151700000,-31.4542824367813,0,0,0
152150000,-44.5847521298584,0,0,0
152600000,-30.3881921077613,0,0,0
153050000,-47.2952097753811,0,0,0
153500000,-31.895822095757,0,0,0
153950000,-46.5309099182542,0,0,0
154400000,-26.6383260942119,0,0,0
154850000,-31.5748959203918,0,0,0
155300000,-40.797461179374,0,0,0
155750000,-43.6121801621707,0,0,0
156200000,-32.7446815214015,0,0,0
156650000,-39.082409911402,0,0,0
157100000,-26.3334582206054,0,0,0
157550000,-39.4290845491286,0,0,0
158000000,-42.9188980905012,0,0,0
158450000,-34.4752215951348,0,0,0
158900000,-41.7463052154019,0,0,0
159350000,-33.1924530345424,0,0,0
159800000,-53.9093573902621,0,0,0
160250000,-36.7149041651953,0,0,0
160700000,-39.0787573867168,0,0,0
161150000,-37.8513811910505,0,0,0
161600000,-24.2624109554958,0,0,0
162050000,-29.9660097823579,0,0,0
162500000,-29.3847234924861,0,0,0
162950000,-46.1913497232284,0,0,0
163400000,-42.932971071085,0,0,0
163850000,-39.528034399513,0,0,0
164300000,-35.5881785074509,0,0,0
164750000,-43.1874764021091,0,0,0
165200000,-43.2742606256781,0,0,0
165650000,-42.2083143107044,0,0,0
166100000,-45.7064486979311,0,0,0
166550000,-36.4115459179854,0,0,0
167000000,-34.9775665994717,0,0,0
167450000,-42.0522182418747,0,0,0
167900000,-36.0463177553778,0,0,0
168350000,-47.996353217943,0,0,0
168800000,-31.5370334417843,0,0,0
169250000,-47.5929397753566,0,0,0
169700000,-34.9093136178198,0,0,0
170150000,-46.8971431725775,0,0,0
170600000,-25.5080880801428,0,0,0
171050000,-31.6476937186641,0,0,0
171500000,-23.6763527624994,0,0,0
171950000,-31.5517421819586,0,0,0
172400000,-47.9647316950384,0,0,0
172850000,-45.7403820052636,0,0,0
173300000,-33.0674515522605,0,0,0
173750000,-39.5547870672335,0,0,0
174200000,-33.7415648641732,0,0,0
174650000,-50.7332439830805,0,0,0
175100000,-46.2547588533773,0,0,0
175550000,-32.3300208025865,0,0,0
176000000,-38.7989562618745,0,0,0
176450000,-55.3937893282928,0,0,0
176900000,-41.8970307043671,0,0,0
177350000,-31.3346178778228,0,0,0
177800000,-34.6346981826501,0,0,0
178250000,-49.503728798148,0,0,0
178700000,-36.8333253269349,0,0,0
179150000,-39.3063273922337,0,0,0
179600000,-34.7069374541419,0,0,0
180050000,-40.9958102355622,0,0,0
180500000,-37.1687495815191,0,0,0
180950000,-28.9547040488323,0,0,0
181400000,-39.0050529424428,0,0,0
181850000,-38.9107863742455,0,0,0
182300000,-39.2901855585823,0,0,0
182750000,-41.7422966145219,0,0,0
183200000,-39.9331617706143,0,0,0
183650000,-48.9317149599204,0,0,0
184100000,-45.4814518157825,0,0,0
184550000,-34.7185252291743,0,0,0
185000000,-49.5456584973276,0,0,0
185450000,-48.9631984759882,0,0,0
185900000,-30.9653511035834,0,0,0
186350000,-35.348330516457,0,0,0
186800000,-34.5844334083967,0,0,0
187250000,-37.5447762382711,0,0,0
187700000,-41.9301410907993,0,0,0
188150000,-45.8086689565793,0,0,0
188600000,-40.848577271939,0,0,0
189050000,-39.2057744080686,0,0,0
189500000,-39.1972123245537,0,0,0
189950000,-43.4735710851279,0,0,0
190400000,-36.6105885714751,0,0,0
190850000,-45.8645654960392,0,0,0
191300000,-40.2474251754524,0,0,0
191750000,-45.4308578338601,0,0,0
192200000,-38.0192355692948,0,0,0
192650000,-28.6289865170165,0,0,0
193100000,-35.3503965615948,0,0,0
193550000,-40.6477853755431,0,0,0
194000000,-30.9274055020374,0,0,0
194450000,-35.4839531019851,0,0,0
194900000,-32.7869203583152,0,0,0
195350000,-43.1725768065183,0,0,0
195800000,-36.9874330218804,0,0,0
196250000,-42.1253590554181,0,0,0
196700000,-37.7797647613379,0,0,0
197150000,-33.3978885650722,0,0,0
197600000,-28.3370914914521,0,0,0
198050000,-32.3457186761576,0,0,0
198500000,-36.7010626532291,0,0,0
198950000,-35.3686167416018,0,0,0
199400000,-44.2325448678715,0,0,0
199850000,-56.8961900752826,0,0,0
200300000,-37.4506647712444,0,0,0
200750000,-38.1604328527166,0,0,0
201200000,-35.8585982128753,0,0,0
201650000,-44.580306656021,0,0,0
202100000,-46.2149106060922,0,0,0
202550000,-41.4434048638485,0,0,0
203000000,-37.2700334976361,0,0,0
203450000,-45.7355886542595,0,0,0
203900000,-43.0132737743856,0,0,0
204350000,-37.6054666270631,0,0,0
204800000,-42.5139358784809,0,0,0
205250000,-41.7082040101639,0,0,0
205700000,-45.7148093527636,0,0,0
206150000,-40.4554119714757,0,0,0
206600000,-53.2967268330639,0,0,0
207050000,-37.7035267879693,0,0,0
207500000,-48.7222457145937,0,0,0
207950000,-35.0098232853558,0,0,0
208400000,-42.6733371067991,0,0,0
208850000,-44.0722907718013,0,0,0
209300000,-55.0623904515997,0,0,0
209750000,-47.3251492467038,0,0,0
210200000,-41.6408500088338,0,0,0
210650000,-38.4341687362355,0,0,0
211100000,-47.4300219563057,0,0,0
211550000,-37.407794774453,0,0,0
212000000,-39.0845463801118,0,0,0
212450000,-41.0606016800794,0,0,0
212900000,-32.5881648120009,0,0,0
213350000,-40.3805801498763,0,0,0
213800000,-39.2971659642855,0,0,0
214250000,-42.4224715522563,0,0,0
214700000,-43.5045657672863,0,0,0
215150000,-44.6834353555208,0,0,0
215600000,-48.1967985498248,0,0,0
216050000,-46.1917379077057,0,0,0
216500000,-46.8122792933001,0,0,0
216950000,-34.3333780405278,0,0,0
217400000,-47.7619641398198,0,0,0
217850000,-41.3190370020056,0,0,0
218300000,-60.9669933634199,0,0,0
218750000,-35.3295682227936,0,0,0
219200000,-38.1922051740093,0,0,0
219650000,-44.1858146511849,0,0,0
220100000,-44.5813241285999,0,0,0
220550000,-52.5313455074276,0,0,0
221000000,-42.8963787473502,0,0,0
221450000,-43.5224920230162,0,0,0
221900000,-41.1591545055482,0,0,0
222350000,-43.6667473169201,0,0,0
222800000,-35.9806933559179,0,0,0
223250000,-42.1223123460098,0,0,0
223700000,-39.7253401211524,0,0,0
224150000,-42.5698444088235,0,0,0
224600000,-33.1119448387332,0,0,0
225050000,-38.1799196595068,0,0,0
225500000,-25.566642377869,0,0,0
225950000,-38.0458058276404,0,0,0
226400000,-30.3655447712382,0,0,0
226850000,-42.2237967139164,0,0,0
227300000,-42.2708232047024,0,0,0
227750000,-46.3605764820249,0,0,0
228200000,-35.3255497849975,0,0,0
228650000,-37.6255593299943,0,0,0
229100000,-47.0290258624554,0,0,0
229550000,-42.5404691373794,0,0,0
230000000,-45.4465507917052,0,0,0
230450000,-47.9292022312772,0,0,0
230900000,-46.5331098910999,0,0,0
231350000,-41.575279024538,0,0,0
231800000,-37.3097957591969,0,0,0
232250000,-43.4697394459754,0,0,0
232700000,-40.2798319433358,0,0,0
233150000,-46.0406939393152,0,0,0
233600000,-42.6858424385679,0,0,0
234050000,-36.5269308710875,0,0,0
234500000,-35.8846331020525,0,0,0
234950000,-30.4401797703188,0,0,0
235400000,-46.2509341084638,0,0,0
235850000,-44.4937244031206,0,0,0
236300000,-43.3159846375471,0,0,0
236750000,-39.9910930848735,0,0,0
237200000,-42.3709516502879,0,0,0
237650000,-40.7868034348102,0,0,0
238100000,-41.7092577433156,0,0,0
238550000,-35.6345973523331,0,0,0
239000000,-35.4873336741905,0,0,0
239450000,-47.4180650237242,0,0,0
239900000,-22.5836412740243,0,0,0
240350000,-40.7950105087208,0,0,0
240800000,-25.5839492884895,0,0,0
241250000,-33.6963615426045,0,0,0
241700000,-50.1897950141304,0,0,0
242150000,-40.5820566328472,0,0,0
242600000,-50.3356102116515,0,0,0
243050000,-40.5552703754444,0,0,0
243500000,-51.6758209561059,0,0,0
243950000,-38.814510782126,0,0,0
244400000,-43.6300534756867,0,0,0
244850000,-44.7934564885428,0,0,0
245300000,-45.7739641482732,0,0,0
245750000,-34.3571105273022,0,0,0
246200000,-39.2184758449257,0,0,0
246650000,-47.1942527474822,0,0,0
247100000,-38.0836533977361,0,0,0
247550000,-44.9673575366407,0,0,0
248000000,-43.7256414399536,0,0,0
248450000,-40.0146233795131,0,0,0
248900000,-45.0429601032493,0,0,0
249350000,-42.663418077498,0,0,0
249800000,-40.3480448692493,0,0,0
250250000,-47.1215636250075,0,0,0
250700000,-39.7071740072233,0,0,0
251150000,-36.351637044054,0,0,0
251600000,-45.9419165839362,0,0,0
252050000,-49.4572267011986,0,0,0
252500000,-47.7437561310789,0,0,0
252950000,-41.805137715399,0,0,0
253400000,-68.4403609888348,0,0,0
253850000,-37.9753335534998,0,0,0
254300000,-39.7952648130833,0,0,0
254750000,-38.7394014277302,0,0,0
255200000,-43.9784619793051,0,0,0
255650000,-39.579364431653,0,0,0
256100000,-35.7557841204326,0,0,0
256550000,-53.6656792403608,0,0,0
257000000,-34.1520438260937,0,0,0
257450000,-58.1416058027644,0,0,0
257900000,-46.2323161471822,0,0,0
258350000,-46.6949330100071,0,0,0
258800000,-37.5087445992693,0,0,0
259250000,-31.9830605287777,0,0,0
259700000,-53.4712880823802,0,0,0
260150000,-31.9563239171618,0,0,0
260600000,-35.399107230531,0,0,0
261050000,-23.0516067852016,0,0,0
261500000,-54.1090824460998,0,0,0
261950000,-49.5508132558931,0,0,0
262400000,-33.730996636628,0,0,0
262850000,-47.1479131003392,0,0,0
263300000,-34.6603222539018,0,0,0
263750000,-41.8365741862885,0,0,0
264200000,-38.6484278615087,0,0,0
264650000,-37.5872701779939,0,0,0
265100000,-46.5296482474739,0,0,0
265550000,-38.7149964995604,0,0,0
266000000,-44.5614894833124,0,0,0
266450000,-47.5070090630626,0,0,0
266900000,-29.6599966969395,0,0,0
267350000,-30.9465698992444,0,0,0
267800000,-28.5863544436904,0,0,0
268250000,-45.9874548294758,0,0,0
268700000,-41.0362052294399,0,0,0
269150000,-37.5110725343397,0,0,0
269600000,-35.7724395207246,0,0,0
270050000,-35.1315577840248,0,0,0
270500000,-44.1203511898696,0,0,0
270950000,-36.7585756449383,0,0,0
271400000,-41.4439771743202,0,0,0
271850000,-35.8492093859856,0,0,0
272300000,-56.872378912952,0,0,0
272750000,-31.2523764203386,0,0,0
273200000,-53.0207222193313,0,0,0
273650000,-37.5930937408587,0,0,0
274100000,-49.8813426389466,0,0,0
274550000,-50.3795071726788,0,0,0
275000000,-39.900664316407,0,0,0
275450000,-45.1943752898975,0,0,0
275900000,-36.2482203119832,0,0,0
276350000,-45.9400580726613,0,0,0
276800000,-38.4406519609867,0,0,0
277250000,-52.2876433761276,0,0,0
277700000,-33.756727527489,0,0,0
278150000,-41.5972543941527,0,0,0
278600000,-30.9202368020271,0,0,0
279050000,-48.9525120114166,0,0,0
279500000,-30.9362278114199,0,0,0
279950000,-41.0793795873725,0,0,0
280400000,-43.6687916350127,0,0,0
280850000,-39.640868243857,0,0,0
281300000,-47.0370165958907,0,0,0
281750000,-37.0560205967158,0,0,0
282200000,-48.492922626161,0,0,0
282650000,-37.1074126023711,0,0,0
283100000,-46.4499229794928,0,0,0
283550000,-48.3991759423524,0,0,0
284000000,-52.5201024798046,0,0,0
284450000,-49.5658009866423,0,0,0
284900000,-41.6185274897643,0,0,0
285350000,-39.3492920438858,0,0,0
285800000,-35.3862089203867,0,0,0
286250000,-42.5341368634257,0,0,0
286700000,-33.4241607125769,0,0,0
287150000,-41.787136340824,0,0,0
287600000,-34.2779477567422,0,0,0
288050000,-36.279996256488,0,0,0
288500000,-36.47293199528,0,0,0
288950000,-36.0557229909159,0,0,0
289400000,-47.7650756338511,0,0,0
289850000,-40.2921271214969,0,0,0
290300000,-56.0664581294317,0,0,0
290750000,-39.8685836957766,0,0,0
291200000,-49.4252617331822,0,0,0
291650000,-46.2443527315555,0,0,0
292100000,-43.4344691536995,0,0,0
292550000,-44.596386797958,0,0,0
293000000,-34.9424614950602,0,0,0
293450000,-43.6605470746792,0,0,0
293900000,-37.0185113069651,0,0,0
294350000,-47.5372248496687,0,0,0
294800000,-38.0799871760068,0,0,0
295250000,-36.9717726994956,0,0,0
295700000,-39.3912798012844,0,0,0
296150000,-56.5563170148891,0,0,0
296600000,-44.1016561852383,0,0,0
297050000,-38.3505214681405,0,0,0
297500000,-40.1306224472851,0,0,0
297950000,-40.44945622397,0,0,0
298400000,-41.5484508221291,0,0,0
298850000,-45.6517623199825,0,0,0
299300000,-23.6324930414195,0,0,0
299750000,-45.1518693785513,0,0,0
300200000,-51.4530924562129,0,0,0
300650000,-61.3224852057782,0,0,0
301100000,-42.1889203477631,0,0,0
301550000,-47.9512961736948,0,0,0
302000000,-46.7889625026736,0,0,0
302450000,-55.2663116090249,0,0,0
302900000,-46.0924289166972,0,0,0
303350000,-49.0738296315599,0,0,0
303800000,-54.707032005272,0,0,0
304250000,-52.0293188234032,0,0,0
304700000,-47.3157835035822,0,0,0
305150000,-30.6415111352158,0,0,0
305600000,-47.1830147121416,0,0,0
306050000,-47.5793996532002,0,0,0
306500000,-49.0497822438556,0,0,0
306950000,-48.2021310329165,0,0,0
307400000,-54.9794521389438,0,0,0
307850000,-51.3772304153789,0,0,0
308300000,-48.9093087439622,0,0,0
308750000,-49.7137737543524,0,0,0
309200000,-51.8981402617096,0,0,0
309650000,-49.984003535409,0,0,0
310100000,-54.0607362007962,0,0,0
310550000,-52.3072927225842,0,0,0
311000000,-49.2638919713671,0,0,0
311450000,-64.0378721757777,0,0,0
311900000,-51.6332739598306,0,0,0
312350000,-48.9171733270353,0,0,0
312800000,-46.0062411788504,0,0,0
313250000,-51.0751410455762,0,0,0
313700000,-60.4966553622799,0,0,0
314150000,-56.615543232785,0,0,0
314600000,-47.1297937063519,0,0,0
315050000,-62.1970856948595,0,0,0
315500000,-43.4107790661947,0,0,0
315950000,-55.225554679088,0,0,0
316400000,-47.2176398599223,0,0,0
316850000,-53.4295896917051,0,0,0
317300000,-50.3360904046319,0,0,0
317750000,-54.3967765953875,0,0,0
318200000,-45.6407087347495,0,0,0
318650000,-46.9211251539356,0,0,0
319100000,-54.3352567059787,0,0,0
319550000,-49.3662181694218,0,0,0
320000000,-54.0609964809751,0,0,0
320450000,-46.4981037817697,0,0,0
320900000,-46.3493517034287,0,0,0
321350000,-65.8860427398007,0,0,0
321800000,-49.6681513590294,0,0,0
322250000,-45.3220305463347,0,0,0
322700000,-44.7690556786354,0,0,0
323150000,-44.3325618783909,0,0,0
323600000,-46.2693725509022,0,0,0
324050000,-48.5909728085608,0,0,0
324500000,-53.99109503469,0,0,0
324950000,-40.4721334655441,0,0,0
325400000,-48.1442810222619,0,0,0
325850000,-48.7987983072842,0,0,0
326300000,-52.6309636357272,0,0,0
326750000,-54.6660438386654,0,0,0
327200000,-58.8745273375325,0,0,0
327650000,-53.492210971236,0,0,0
328100000,-49.0138797871619,0,0,0
328550000,-67.8823190922346,0,0,0
329000000,-47.9777485111394,0,0,0
329450000,-57.2988384362542,0,0,0
329900000,-48.318047766429,0,0,0
330350000,-51.8249690396878,0,0,0
330800000,-51.1469984372453,0,0,0
331250000,-49.4310597602002,0,0,0
331700000,-53.7486448403532,0,0,0
332150000,-48.443116279219,0,0,0
332600000,-49.7969900081198,0,0,0
333050000,-50.0401632322798,0,0,0
333500000,-60.5444086574328,0,0,0
333950000,-63.3890237255218,0,0,0
334400000,-47.8329949727249,0,0,0
334850000,-50.8302973136048,0,0,0
335300000,-53.1519250160275,0,0,0
335750000,-56.6512645316485,0,0,0
336200000,-44.876336063913,0,0,0
336650000,-64.4684390461469,0,0,0
337100000,-59.8054815014397,0,0,0
337550000,-57.2172747427242,0,0,0
338000000,-49.9532583973266,0,0,0
338450000,-61.171209606592,0,0,0
338900000,-48.5957122388969,0,0,0
339350000,-49.5775926191934,0,0,0
339800000,-52.5013198552875,0,0,0
340250000,-57.2237240107352,0,0,0
340700000,-53.639490512954,0,0,0
341150000,-40.9455340552307,0,0,0
341600000,-57.9222801436831,0,0,0
342050000,-51.3467504467945,0,0,0
342500000,-52.0640494448483,0,0,0
342950000,-68.595459576459,0,0,0
343400000,-59.8370660504697,0,0,0
343850000,-52.3311194677024,0,0,0
344300000,-53.9864235508219,0,0,0
344750000,-55.2627103237867,0,0,0
345200000,-52.3290713354022,0,0,0
345650000,-59.9275703127101,0,0,0
346100000,-48.3167141120394,0,0,0
346550000,-54.6020463868216,0,0,0
347000000,-41.0263314670263,0,0,0
347450000,-51.6225583839701,0,0,0
347900000,-49.8425703632252,0,0,0
348350000,-61.5711842348576,0,0,0
348800000,-54.082159352883,0,0,0
349250000,-54.0940682881852,0,0,0
349700000,-49.3559822787138,0,0,0
350150000,-48.1404100301458,0,0,0
350600000,-52.8511874229044,0,0,0
351050000,-54.9284651582054,0,0,0
351500000,-49.045297472184,0,0,0
351950000,-58.7450451917109,0,0,0
352400000,-60.2457195601546,0,0,0
352850000,-47.9674754275215,0,0,0
353300000,-52.0384546761306,0,0,0
353750000,-48.4531492609382,0,0,0
354200000,-52.7701768109015,0,0,0
354650000,-61.8877754398227,0,0,0
355100000,-45.6958526715074,0,0,0
355550000,-45.919141305173,0,0,0
356000000,-49.2366328435522,0,0,0
356450000,-49.0814956061671,0,0,0
356900000,-54.0052507296555,0,0,0
357350000,-45.3824929912982,0,0,0
357800000,-50.088954223814,0,0,0
358250000,-53.0566073127227,0,0,0
358700000,-48.1968885064139,0,0,0
359150000,-51.8858566200968,0,0,0
359600000,-50.8189287093906,0,0,0
360050000,-48.616040747762,0,0,0
360500000,-46.4176741589185,0,0,0
360950000,-54.907708748795,0,0,0
361400000,-52.4042306610177,0,0,0
361850000,-52.6308971167751,0,0,0
362300000,-50.7902993742611,0,0,0
362750000,-54.9691245289644,0,0,0
363200000,-64.4069377852028,0,0,0
363650000,-47.2686563696742,0,0,0
364100000,-58.5489997532004,0,0,0
364550000,-44.4989411922795,0,0,0
365000000,-56.5455778570286,0,0,0
365450000,-50.1842322688671,0,0,0
365900000,-59.4012516552555,0,0,0
366350000,-52.0349874294198,0,0,0
366800000,-55.8693707173639,0,0,0
367250000,-53.3387689995771,0,0,0
367700000,-52.1151824799591,0,0,0
368150000,-55.5617438621804,0,0,0
368600000,-53.5424896230857,0,0,0
369050000,-67.1655189703308,0,0,0
369500000,-52.3978303360955,0,0,0
369950000,-51.1863807921043,0,0,0
370400000,-67.3602185261889,0,0,0
370850000,-58.6452634406145,0,0,0
371300000,-66.4096178174729,0,0,0
371750000,-57.7562595595957,0,0,0
372200000,-53.5606602721513,0,0,0
372650000,-51.3598951323225,0,0,0
373100000,-52.088514442653,0,0,0
373550000,-49.9039767497749,0,0,0
374000000,-45.3531300518029,0,0,0
374450000,-53.5958613044226,0,0,0
374900000,-49.4499794900002,0,0,0
375350000,-45.9499185051504,0,0,0
375800000,-50.5059324348662,0,0,0
376250000,-45.7127669135762,0,0,0
376700000,-51.3552882127984,0,0,0
377150000,-52.9124489226987,0,0,0
377600000,-46.0690060332415,0,0,0
378050000,-49.4022774683477,0,0,0
378500000,-54.5058764555682,0,0,0
378950000,-51.2044642391081,0,0,0
379400000,-55.0074352641178,0,0,0
379850000,-58.1413208006293,0,0,0
380300000,-51.6251696936687,0,0,0
380750000,-50.9804861826397,0,0,0
381200000,-50.2861308317972,0,0,0
381650000,-52.8474964888285,0,0,0
382100000,-58.3841227260996,0,0,0
382550000,-56.7666287725465,0,0,0
383000000,-62.7001453054066,0,0,0
383450000,-55.9217602257992,0,0,0
383900000,-51.2890248412956,0,0,0
384350000,-53.9478268367064,0,0,0
384800000,-57.6216248092931,0,0,0
385250000,-75.8129814492447,0,0,0
385700000,-57.030165329739,0,0,0
386150000,-61.6180916822659,0,0,0
386600000,-56.2503442786773,0,0,0
387050000,-56.6928565585171,0,0,0
387500000,-59.8702765684302,0,0,0
387950000,-54.110515739797,0,0,0
388400000,-49.2666241849244,0,0,0
388850000,-48.0431744631764,0,0,0
389300000,-50.5031143836484,0,0,0
389750000,-61.7208449853114,0,0,0
390200000,-78.2427954973589,0,0,0
390650000,-76.8892871788938,0,0,0
391100000,-62.0599246101844,0,0,0
391550000,-54.5129991523776,0,0,0
392000000,-53.4406685785053,0,0,0
392450000,-57.3924529555619,0,0,0
392900000,-54.3050768764998,0,0,0
393350000,-51.4416820208345,0,0,0
393800000,-50.1107266301727,0,0,0
394250000,-47.2382596012431,0,0,0
394700000,-43.9658026138485,0,0,0
395150000,-51.4238716768259,0,0,0
395600000,-41.0377264438619,0,0,0
396050000,-38.715471360842,0,0,0
396500000,-42.0310551805713,0,0,0
396950000,-38.0134291553895,0,0,0
397400000,-61.875544221775,0,0,0
397850000,-47.4191894179263,0,0,0
398300000,-43.922269386615,0,0,0
398750000,-56.1222923787993,0,0,0
399200000,-57.6498813079009,0,0,0
399650000,-43.9705637375376,0,0,0
400100000,-45.7218126680806,0,0,0
400550000,-52.5009122976185,0,0,0
401000000,-58.8685696973813,0,0,0
401450000,-52.0525611667311,0,0,0
401900000,-58.0305550268778,0,0,0
402350000,-56.6478261735375,0,0,0
402800000,-61.0398632519498,0,0,0
403250000,-57.7587685280263,0,0,0
403700000,-49.1376717335556,0,0,0
404150000,-55.6142834695525,0,0,0
404600000,-56.8747354287234,0,0,0
405050000,-52.9674705596041,0,0,0
405500000,-62.4085756421467,0,0,0
405950000,-57.5609166174668,0,0,0
406400000,-49.8922208288235,0,0,0
406850000,-57.1487670254269,0,0,0
407300000,-56.851242624976,0,0,0
407750000,-48.4681073023522,0,0,0
408200000,-54.9079020411805,0,0,0
408650000,-57.3299762715106,0,0,0
409100000,-52.6287720018869,0,0,0
409550000,-55.951409110097,0,0,0
410000000,-53.9257719579183,0,0,0
410450000,-56.0299177037472,0,0,0
410900000,-53.4110306550293,0,0,0
411350000,-56.1254633957442,0,0,0
411800000,-59.9939560089638,0,0,0
412250000,-60.8744045113364,0,0,0
412700000,-51.6874527276003,0,0,0
413150000,-56.6282028190083,0,0,0
413600000,-57.3700238307361,0,0,0
414050000,-56.6073405842779,0,0,0
414500000,-55.6574743790928,0,0,0
414950000,-62.1657113913297,0,0,0
415400000,-54.9040775579095,0,0,0
415850000,-59.1556068404936,0,0,0
416300000,-68.2899868333414,0,0,0
416750000,-54.6091458055928,0,0,0
417200000,-57.8596877847656,0,0,0
417650000,-54.3445930085338,0,0,0
418100000,-52.2443856077545,0,0,0
418550000,-64.6564641670558,0,0,0
419000000,-53.0803442112544,0,0,0
419450000,-64.3201632915061,0,0,0
419900000,-59.939595720177,0,0,0
420350000,-58.440409404626,0,0,0
420800000,-58.6169754459731,0,0,0
421250000,-59.7188881433358,0,0,0
421700000,-57.0982876708109,0,0,0
422150000,-56.4430047856646,0,0,0
422600000,-56.1513678375889,0,0,0
423050000,-61.4154237234103,0,0,0
423500000,-56.9833496670499,0,0,0
423950000,-47.6428981297539,0,0,0
424400000,-62.6346942892244,0,0,0
424850000,-61.0095395210303,0,0,0
425300000,-52.6575142547303,0,0,0
425750000,-56.372833024455,0,0,0
426200000,-61.2912647847707,0,0,0
426650000,-71.6821158308015,0,0,0
427100000,-59.5312499072238,0,0,0
427550000,-59.1355508262401,0,0,0
428000000,-53.4153547264822,0,0,0
428450000,-50.9063181706763,0,0,0
428900000,-55.4217738728957,0,0,0
429350000,-53.6993841262975,0,0,0
429800000,-57.2968276714604,0,0,0
430250000,-51.7109031051789,0,0,0
430700000,-56.6820240954867,0,0,0
431150000,-50.052727341951,0,0,0
431600000,-56.5619856964337,0,0,0
432050000,-51.949523595204,0,0,0
432500000,-64.5024711705886,0,0,0
432950000,-52.6588659207894,0,0,0
433400000,-55.2969524054907,0,0,0
433850000,-53.2564680166235,0,0,0
434300000,-49.3487915038978,0,0,0
434750000,-60.1108487882654,0,0,0
435200000,-56.4065738387888,0,0,0
435650000,-55.0690523235171,0,0,0
436100000,-61.4757904151641,0,0,0
436550000,-58.63327716474,0,0,0
437000000,-49.5895956231544,0,0,0
437450000,-65.7892139486521,0,0,0
437900000,-56.8165682982681,0,0,0
438350000,-64.6282920603196,0,0,0
438800000,-60.8132663998446,0,0,0
439250000,-62.3902393236418,0,0,0
439700000,-51.2960611648961,0,0,0
440150000,-57.4904595893996,0,0,0
440600000,-56.4497367653857,0,0,0
441050000,-61.7173441196188,0,0,0
441500000,-58.3965746300699,0,0,0
441950000,-58.891614820728,0,0,0
442400000,-68.0557721117923,0,0,0
442850000,-65.8958064306984,0,0,0
443300000,-58.4443994225051,0,0,0
443750000,-49.310640683356,0,0,0
444200000,-63.4536372746206,0,0,0
444650000,-54.7891677382577,0,0,0
445100000,-46.9072434405358,0,0,0
445550000,-46.1157635160948,0,0,0
446000000,-46.3900790388314,0,0,0
446450000,-57.0710052167329,0,0,0
446900000,-50.7605295562233,0,0,0
447350000,-67.2545784495463,0,0,0
447800000,-68.9675319973335,0,0,0
448250000,-48.55588624483,0,0,0
448700000,-53.8854199572155,0,0,0
449150000,-51.8646253239393,0,0,0
449600000,-56.5739077220551,0,0,0
450050000,-62.374591843033,0,0,0
450500000,-56.8098563771183,0,0,0
450950000,-49.8908959558319,0,0,0
451400000,-59.569369119379,0,0,0
451850000,-64.8308441850052,0,0,0
452300000,-51.6968184931206,0,0,0
452750000,-54.628963983743,0,0,0
453200000,-64.5448525029211,0,0,0
453650000,-57.2957293871671,0,0,0
454100000,-60.8668807468036,0,0,0
454550000,-60.8153540815307,0,0,0
455000000,-73.8299744953433,0,0,0
455450000,-58.1696590786909,0,0,0
455900000,-57.2290755293249,0,0,0
456350000,-58.7665584881445,0,0,0
456800000,-69.0224820984687,0,0,0
457250000,-56.2327181924644,0,0,0
457700000,-49.4462985710296,0,0,0
458150000,-65.2961437541212,0,0,0
458600000,-52.4501566130053,0,0,0
459050000,-59.4513074916525,0,0,0
459500000,-48.9898489391418,0,0,0
459950000,-53.6227709781097,0,0,0
460400000,-60.469862809674,0,0,0
460850000,-52.0128711630283,0,0,0
461300000,-58.149373592395,0,0,0
461750000,-58.0763127257237,0,0,0
462200000,-62.1779437820179,0,0,0
462650000,-55.7860595826176,0,0,0
463100000,-64.2803465310654,0,0,0
463550000,-61.6098512576584,0,0,0
464000000,-61.9214792694416,0,0,0
464450000,-66.7300251996341,0,0,0
464900000,-58.4442826420266,0,0,0
465350000,-51.4900113875176,0,0,0
465800000,-65.3887288615051,0,0,0
466250000,-56.213159443556,0,0,0
466700000,-61.9697813523835,0,0,0
467150000,-50.304771719796,0,0,0
467600000,-56.4729288686571,0,0,0
468050000,-56.1083531584362,0,0,0
468500000,-60.6387403488708,0,0,0
468950000,-63.153221224187,0,0,0
469400000,-63.7117424140233,0,0,0
469850000,-45.8213279668399,0,0,0
470300000,-74.2742227039046,0,0,0
470750000,-52.8302428768188,0,0,0
471200000,-75.2223694569069,0,0,0
471650000,-57.4479818881121,0,0,0
472100000,-46.1075965934136,0,0,0
472550000,-63.5529358183598,0,0,0
473000000,-56.0340303350731,0,0,0
473450000,-50.8604161145711,0,0,0
473900000,-57.4034346251257,0,0,0
474350000,-53.2429798449029,0,0,0
474800000,-51.7771889149698,0,0,0
475250000,-57.2127285203167,0,0,0
475700000,-57.7351975285847,0,0,0
476150000,-48.4881103081414,0,0,0
476600000,-52.3211224682199,0,0,0
477050000,-74.2927771169637,0,0,0
477500000,-76.9814280323288,0,0,0
477950000,-56.7283860173501,0,0,0
478400000,-51.0632182222682,0,0,0
478850000,-48.7964428728194,0,0,0
479300000,-50.7854297480447,0,0,0
479750000,-54.7709757282285,0,0,0
480200000,-55.1139113852812,0,0,0
480650000,-54.317676823153,0,0,0
481100000,-51.166461956285,0,0,0
481550000,-51.0946358325867,0,0,0
482000000,-57.5480081188087,0,0,0
482450000,-66.5880117994225,0,0,0
482900000,-54.5643392503162,0,0,0
483350000,-50.5733376888771,0,0,0
483800000,-54.8501799154947,0,0,0
484250000,-58.8886565410124,0,0,0
484700000,-55.2667837557071,0,0,0
485150000,-49.0505986753395,0,0,0
485600000,-57.1608346029492,0,0,0
486050000,-64.9329548008288,0,0,0
486500000,-50.6218789914124,0,0,0
486950000,-57.4602365278248,0,0,0
487400000,-50.471670112785,0,0,0
487850000,-66.2637298741403,0,0,0
488300000,-65.7426692936533,0,0,0
488750000,-63.9747453609484,0,0,0
489200000,-53.1261420820126,0,0,0
489650000,-45.908941898812,0,0,0
490100000,-51.0165423028798,0,0,0
490550000,-64.8918122856333,0,0,0
491000000,-61.8731630368562,0,0,0
491450000,-54.8366412408299,0,0,0
491900000,-45.0572213714685,0,0,0
492350000,-63.2530303216683,0,0,0
492800000,-53.563858465332,0,0,0
493250000,-56.6000099245781,0,0,0
493700000,-55.7299065400133,0,0,0
494150000,-48.3530752921359,0,0,0
494600000,-51.1821227552581,0,0,0
495050000,-61.0443083026644,0,0,0
495500000,-63.8264871771894,0,0,0
495950000,-56.1842609429111,0,0,0
496400000,-50.7799205576187,0,0,0
496850000,-63.6714531681367,0,0,0
497300000,-53.5418679993762,0,0,0
497750000,-60.8788067160284,0,0,0
498200000,-70.7953803739141,0,0,0
498650000,-54.1422887044872,0,0,0
499100000,-55.0448648970807,0,0,0
499550000,-62.1313581988007,0,0,0
500000000,-50.0931531826121,0,0,0
END
