! FILETYPE CSV
! VERSION 3.0,1
! TIMESTAMP Saturday, 23 September 2023 04:40:47
! TIMEZONE (UTC+08:00) Kuala Lumpur, Singapore
! NAME Keysight Technologies
! MODEL N9913B
! SERIAL MY61262579
! FIRMWARE_VERSION A.12.20
! CORRECTION 
! Application SA
! SA Frequency Scan
!  CenterFreq 275000000
!  SpanFreq 450000000
!  Num TracePoints 401
!  ResolutionBW 3000000
!  VideoBW 3000000
!  RF Attenuation 0
!  Preamp OFF
!  External Gain 0
!  Detector Positive
!  TraceAvgCount 1 / 1
! Trace TIMESTAMP: 2023-09-23 04:40:46Z
! Trace GPS Info...
! GPS Latitude: 
! GPS Longitude: 
! GPS Elevation (m): 
! GPS Seconds Since Last Read: 
! CHECKSUM 1195176509
! DATA Freq,SA Clear-Write,SA Blank,SA Blank,SA Blank
! FREQ UNIT Hz
! DATA UNIT dBm
BEGIN
50000000,-66.1049732504074,0,0,0
51125000,-60.7057428750386,0,0,0
52250000,-46.8264592388214,0,0,0
53375000,-63.6631234566213,0,0,0
54500000,-58.93141498267,0,0,0
55625000,-66.448126941038,0,0,0
56750000,-63.4898825623026,0,0,0
57875000,-71.9657008881815,0,0,0
59000000,-69.9336720693462,0,0,0
60125000,-67.2128323561613,0,0,0
61250000,-63.8140213135539,0,0,0
62375000,-48.2114024591457,0,0,0
63500000,-47.5604957161661,0,0,0
64625000,-60.7707756194786,0,0,0
65750000,-52.1159771987476,0,0,0
66875000,-41.8349649885933,0,0,0
68000000,-39.93304050902,0,0,0
69125000,-55.3468841730465,0,0,0
70250000,-53.6514628104104,0,0,0
71375000,-59.6694613389141,0,0,0
72500000,-56.5013018943878,0,0,0
73625000,-65.694935846767,0,0,0
74750000,-55.3151417982291,0,0,0
75875000,-58.4954576986405,0,0,0
77000000,-56.3621818866395,0,0,0
78125000,-45.8025486943006,0,0,0
79250000,-67.2074597839571,0,0,0
80375000,-60.2994964744476,0,0,0
81500000,-44.9025419155737,0,0,0
82625000,-39.9190843738993,0,0,0
83750000,-59.232222834469,0,0,0
84875000,-42.7642900136427,0,0,0
86000000,-67.7502562258437,0,0,0
87125000,-54.8645397801205,0,0,0
88250000,-43.2601165680461,0,0,0
89375000,-39.2209237468696,0,0,0
90500000,-37.3765090827494,0,0,0
91625000,-35.3609101783992,0,0,0
92750000,-35.392439347631,0,0,0
93875000,-38.3687814852991,0,0,0
95000000,-57.2889151230442,0,0,0
96125000,-49.2836952749897,0,0,0
97250000,-58.4466015030454,0,0,0
98375000,-55.8363206274013,0,0,0
99500000,-66.7276608744502,0,0,0
100625000,-54.1388594640392,0,0,0
101750000,-64.5793972854015,0,0,0
102875000,-53.9268803679731,0,0,0
104000000,-62.7296216545596,0,0,0
105125000,-61.5336414583546,0,0,0
106250000,-69.3679764392111,0,0,0
107375000,-61.4771944978635,0,0,0
108500000,-66.2720466087174,0,0,0
109625000,-73.9903310200756,0,0,0
110750000,-67.3962855060469,0,0,0
111875000,-56.0082536064328,0,0,0
113000000,-62.3977471438488,0,0,0
114125000,-59.8219423306738,0,0,0
115250000,-69.0646897269336,0,0,0
116375000,-79.5318142219083,0,0,0
117500000,-65.8870131507774,0,0,0
118625000,-69.6442368975647,0,0,0
119750000,-48.3333515763852,0,0,0
120875000,-60.9268513244819,0,0,0
122000000,-62.2591354600019,0,0,0
123125000,-60.8769188019422,0,0,0
124250000,-63.9653311206552,0,0,0
125375000,-59.9059156594071,0,0,0
126500000,-55.3244006587744,0,0,0
127625000,-44.2986482060869,0,0,0
128750000,-56.7776527056472,0,0,0
129875000,-55.3554838202671,0,0,0
131000000,-74.0042713630973,0,0,0
132125000,-66.1916799022222,0,0,0
133250000,-65.2537368829597,0,0,0
134375000,-68.0162403479117,0,0,0
135500000,-71.9937696400528,0,0,0
136625000,-73.8541908509584,0,0,0
137750000,-69.0074914734719,0,0,0
138875000,-64.6323227070856,0,0,0
140000000,-73.7598572679299,0,0,0
141125000,-62.1858422960114,0,0,0
142250000,-63.1213477568579,0,0,0
143375000,-56.4177864996203,0,0,0
144500000,-68.6537911161947,0,0,0
145625000,-73.7457448731764,0,0,0
146750000,-66.7356901893085,0,0,0
147875000,-55.9548920926687,0,0,0
149000000,-60.4560769565899,0,0,0
150125000,-66.1220602901281,0,0,0
151250000,-64.7678890710067,0,0,0
152375000,-61.4821278518616,0,0,0
153500000,-67.2181856236474,0,0,0
154625000,-68.1017433793108,0,0,0
155750000,-81.6230895080815,0,0,0
156875000,-61.6355876879939,0,0,0
158000000,-71.0402502513139,0,0,0
159125000,-72.5896186736266,0,0,0
160250000,-56.3099266120918,0,0,0
161375000,-58.5607742274335,0,0,0
162500000,-63.5834338171306,0,0,0
163625000,-60.6671618597168,0,0,0
164750000,-68.7844566695563,0,0,0
165875000,-69.6547526420077,0,0,0
167000000,-72.3800534579216,0,0,0
168125000,-56.9990427104979,0,0,0
169250000,-78.7290335144967,0,0,0
170375000,-78.0478965068295,0,0,0
171500000,-67.5207566688441,0,0,0
172625000,-65.6346913205819,0,0,0
173750000,-67.2425359332682,0,0,0
174875000,-59.8794124565529,0,0,0
176000000,-64.0084863548768,0,0,0
177125000,-74.1925072557815,0,0,0
178250000,-68.1198824911305,0,0,0
179375000,-73.4019721269247,0,0,0
180500000,-70.9870885327742,0,0,0
181625000,-64.9824273324928,0,0,0
182750000,-65.352267143002,0,0,0
183875000,-57.1485924693925,0,0,0
185000000,-67.5080576620202,0,0,0
186125000,-66.410247128388,0,0,0
187250000,-58.4829481919948,0,0,0
188375000,-67.7964382808248,0,0,0
189500000,-63.8835600705503,0,0,0
190625000,-74.1414670639856,0,0,0
191750000,-69.7533628826808,0,0,0
192875000,-73.1541022741637,0,0,0
194000000,-69.2514945649892,0,0,0
195125000,-68.177555501208,0,0,0
196250000,-79.7758451114994,0,0,0
197375000,-69.0700379942278,0,0,0
198500000,-63.6388471484799,0,0,0
199625000,-67.7250313540144,0,0,0
200750000,-76.4926352011042,0,0,0
201875000,-71.9326213374149,0,0,0
203000000,-68.4688187933052,0,0,0
204125000,-72.1969530486742,0,0,0
205250000,-70.4323311849806,0,0,0
206375000,-68.3616774989201,0,0,0
207500000,-73.5056745154091,0,0,0
208625000,-75.1397868234038,0,0,0
209750000,-62.541148287242,0,0,0
210875000,-74.9683651622813,0,0,0
212000000,-78.0288585328965,0,0,0
213125000,-83.0608026186993,0,0,0
214250000,-81.4606719941724,0,0,0
215375000,-78.359313999411,0,0,0
216500000,-63.874688324421,0,0,0
217625000,-69.2248232199214,0,0,0
218750000,-75.75228527324,0,0,0
219875000,-69.8309624477854,0,0,0
221000000,-83.553883539988,0,0,0
222125000,-72.999425821898,0,0,0
223250000,-74.287276613549,0,0,0
224375000,-69.0176737706421,0,0,0
225500000,-68.268905576612,0,0,0
226625000,-72.1494657798363,0,0,0
227750000,-74.9364838988457,0,0,0
228875000,-77.4710440001912,0,0,0
230000000,-71.7816588237553,0,0,0
231125000,-72.4760075729519,0,0,0
232250000,-82.8009783853517,0,0,0
233375000,-60.152892641807,0,0,0
234500000,-73.4611665310906,0,0,0
235625000,-88.6518043965043,0,0,0
236750000,-80.58470362279,0,0,0
237875000,-82.7660275430521,0,0,0
239000000,-70.1788754345397,0,0,0
240125000,-76.5491736994774,0,0,0
241250000,-87.4203638148193,0,0,0
242375000,-70.3826225795608,0,0,0
243500000,-67.2034029228758,0,0,0
244625000,-68.3636106837368,0,0,0
245750000,-68.1375326413042,0,0,0
246875000,-69.011849084924,0,0,0
248000000,-65.1175304247281,0,0,0
249125000,-64.1280858534201,0,0,0
250250000,-87.337287420924,0,0,0
251375000,-66.3143476632194,0,0,0
252500000,-71.572450724372,0,0,0
253625000,-71.4998245145876,0,0,0
254750000,-71.6933359327003,0,0,0
255875000,-74.1369141160915,0,0,0
257000000,-61.7210802166833,0,0,0
258125000,-72.1895778513846,0,0,0
259250000,-71.6886179814897,0,0,0
260375000,-73.7642467957547,0,0,0
261500000,-65.3222449179877,0,0,0
262625000,-79.9920460372087,0,0,0
263750000,-80.7308358362476,0,0,0
264875000,-69.6525870453152,0,0,0
266000000,-75.9835967442114,0,0,0
267125000,-80.4485398829918,0,0,0
268250000,-78.2904502617476,0,0,0
269375000,-64.7268710938872,0,0,0
270500000,-74.1895676704023,0,0,0
271625000,-70.5823209402654,0,0,0
272750000,-65.3899698243018,0,0,0
273875000,-83.6509375522801,0,0,0
275000000,-71.7124309348032,0,0,0
276125000,-78.7178017121666,0,0,0
277250000,-87.5776422599061,0,0,0
278375000,-76.4543854252709,0,0,0
279500000,-72.7319576575784,0,0,0
280625000,-63.93929784335,0,0,0
281750000,-75.1733890904393,0,0,0
282875000,-71.7378016164753,0,0,0
284000000,-63.34902261564,0,0,0
285125000,-71.8647315227936,0,0,0
286250000,-68.1086832574466,0,0,0
287375000,-73.5661362051808,0,0,0
288500000,-74.8252349682696,0,0,0
289625000,-69.7613241569307,0,0,0
290750000,-80.2509664493306,0,0,0
291875000,-71.6573482584599,0,0,0
293000000,-77.648718918933,0,0,0
294125000,-64.8534986110685,0,0,0
295250000,-59.3329953237854,0,0,0
296375000,-64.4558626851548,0,0,0
297500000,-62.5453255890134,0,0,0
298625000,-66.2694806575936,0,0,0
299750000,-64.6745951792527,0,0,0
300875000,-66.6729797987768,0,0,0
302000000,-80.7184412182712,0,0,0
303125000,-71.8634777601408,0,0,0
304250000,-78.6030713315302,0,0,0
305375000,-72.4720683671102,0,0,0
306500000,-82.8404201551164,0,0,0
307625000,-85.9487359972715,0,0,0
308750000,-74.3231213285969,0,0,0
309875000,-82.0156415458784,0,0,0
311000000,-90.3614334957378,0,0,0
312125000,-83.5613997074379,0,0,0
313250000,-73.6789426169447,0,0,0
314375000,-79.4292915805124,0,0,0
315500000,-76.743589962702,0,0,0
316625000,-79.700612053428,0,0,0
317750000,-80.1639130167208,0,0,0
318875000,-78.2075387827687,0,0,0
320000000,-81.6037520816052,0,0,0
321125000,-79.5260680233502,0,0,0
322250000,-79.1880779820806,0,0,0
323375000,-78.9812708246047,0,0,0
324500000,-76.2708842111176,0,0,0
325625000,-75.6666816095652,0,0,0
326750000,-77.577000040614,0,0,0
327875000,-83.0921022255662,0,0,0
329000000,-82.9832983385843,0,0,0
330125000,-84.4623973635314,0,0,0
331250000,-72.24154262314,0,0,0
332375000,-93.2742545394402,0,0,0
333500000,-80.4185710056256,0,0,0
334625000,-82.3100496266548,0,0,0
335750000,-87.624864124972,0,0,0
336875000,-81.5656329626379,0,0,0
338000000,-86.5864405596117,0,0,0
339125000,-83.9168891005961,0,0,0
340250000,-86.0931337865375,0,0,0
341375000,-76.945640521374,0,0,0
342500000,-93.9942618305006,0,0,0
343625000,-74.0421810789945,0,0,0
344750000,-80.3185185406817,0,0,0
345875000,-75.6579496508793,0,0,0
347000000,-80.6793733849858,0,0,0
348125000,-75.5518302434445,0,0,0
349250000,-76.8847511157534,0,0,0
350375000,-78.2281825011074,0,0,0
351500000,-85.1659393514653,0,0,0
352625000,-78.6938876707966,0,0,0
353750000,-84.1194430516042,0,0,0
354875000,-69.5219379445623,0,0,0
356000000,-68.5300573388702,0,0,0
357125000,-74.4735648331839,0,0,0
358250000,-69.3283240126507,0,0,0
359375000,-76.7087004761839,0,0,0
360500000,-78.599341876121,0,0,0
361625000,-81.0201076028856,0,0,0
362750000,-80.8780827539176,0,0,0
363875000,-87.4512897719128,0,0,0
365000000,-81.7743227846201,0,0,0
366125000,-86.8039745950196,0,0,0
367250000,-82.16377838012,0,0,0
368375000,-83.5489745305523,0,0,0
369500000,-88.4205178095239,0,0,0
370625000,-80.4807756837812,0,0,0
371750000,-75.2833500015506,0,0,0
372875000,-76.9345306894391,0,0,0
374000000,-78.8766994319133,0,0,0
375125000,-76.9659292517266,0,0,0
376250000,-78.7492731206811,0,0,0
377375000,-89.0980552225611,0,0,0
378500000,-79.9548486881019,0,0,0
379625000,-92.0206317422382,0,0,0
380750000,-88.6175901488233,0,0,0
381875000,-75.0993903747199,0,0,0
383000000,-73.4700768730914,0,0,0
384125000,-69.0748307602853,0,0,0
385250000,-73.7642544590512,0,0,0
386375000,-71.3965994033388,0,0,0
387500000,-72.7964686275314,0,0,0
388625000,-76.0625105688938,0,0,0
389750000,-78.878203223884,0,0,0
390875000,-82.8776361125146,0,0,0
392000000,-85.0165407341617,0,0,0
393125000,-79.3368736509807,0,0,0
394250000,-78.7755022923266,0,0,0
395375000,-76.7194188422563,0,0,0
396500000,-76.9592015309589,0,0,0
397625000,-72.3008435511985,0,0,0
398750000,-68.4813445738333,0,0,0
399875000,-77.2797269281803,0,0,0
401000000,-75.8254736824215,0,0,0
402125000,-79.0201079705193,0,0,0
403250000,-80.744102717628,0,0,0
404375000,-93.4984526035001,0,0,0
405500000,-78.9355206285834,0,0,0
406625000,-84.5622925619211,0,0,0
407750000,-84.6090980858478,0,0,0
408875000,-82.1070682739841,0,0,0
410000000,-83.5346410288653,0,0,0
411125000,-85.2613153166448,0,0,0
412250000,-84.0887090682611,0,0,0
413375000,-78.5894953535891,0,0,0
414500000,-75.9034882694109,0,0,0
415625000,-78.848712375059,0,0,0
416750000,-78.8936160636241,0,0,0
417875000,-74.719510510911,0,0,0
419000000,-89.8127030677438,0,0,0
420125000,-86.5219899138214,0,0,0
421250000,-78.4066040272793,0,0,0
422375000,-79.9501303467989,0,0,0
423500000,-97.6913639411622,0,0,0
424625000,-79.9259929623137,0,0,0
425750000,-91.4769220207579,0,0,0
426875000,-83.7042657239325,0,0,0
428000000,-83.1964546344032,0,0,0
429125000,-81.5242801332365,0,0,0
430250000,-81.1469201785854,0,0,0
431375000,-79.974181699139,0,0,0
432500000,-81.161983395275,0,0,0
433625000,-76.4609476317355,0,0,0
434750000,-90.5909213723725,0,0,0
435875000,-83.9549537281106,0,0,0
437000000,-81.7722988993076,0,0,0
438125000,-82.3791708641011,0,0,0
439250000,-84.5830699405383,0,0,0
440375000,-84.7257732896672,0,0,0
441500000,-77.2576041880516,0,0,0
442625000,-84.402584147586,0,0,0
443750000,-92.8542497677468,0,0,0
444875000,-79.8415603056009,0,0,0
446000000,-82.0501512872703,0,0,0
447125000,-76.4079092172705,0,0,0
448250000,-88.5192772232824,0,0,0
449375000,-88.7960828049163,0,0,0
450500000,-98.3516880429376,0,0,0
451625000,-84.2915149720845,0,0,0
452750000,-81.673578363671,0,0,0
453875000,-79.9623543370348,0,0,0
455000000,-89.8738465972368,0,0,0
456125000,-78.854370847988,0,0,0
457250000,-87.5132421624087,0,0,0
458375000,-76.653417818426,0,0,0
459500000,-87.8415154726318,0,0,0
460625000,-77.3451436847206,0,0,0
461750000,-81.9026677385878,0,0,0
462875000,-77.5975020094694,0,0,0
464000000,-87.0700647961304,0,0,0
465125000,-78.0277490583557,0,0,0
466250000,-88.9473627402365,0,0,0
467375000,-82.6420420602486,0,0,0
468500000,-78.3282187218809,0,0,0
469625000,-83.7153934120834,0,0,0
470750000,-82.9967511444474,0,0,0
471875000,-83.673941911071,0,0,0
473000000,-85.3524995551872,0,0,0
474125000,-89.0938995371015,0,0,0
475250000,-82.7176029289967,0,0,0
476375000,-87.4955976947784,0,0,0
477500000,-76.9719745364658,0,0,0
478625000,-92.9919155753728,0,0,0
479750000,-76.5113621648104,0,0,0
480875000,-75.4123810096594,0,0,0
482000000,-87.8433102051878,0,0,0
483125000,-85.7975445115964,0,0,0
484250000,-91.5136246606312,0,0,0
485375000,-82.0030144708852,0,0,0
486500000,-75.7124402635091,0,0,0
487625000,-86.1560038426666,0,0,0
488750000,-81.7913123935443,0,0,0
489875000,-88.8917693513283,0,0,0
491000000,-83.7118714930212,0,0,0
492125000,-82.8031585089985,0,0,0
493250000,-87.9954096698759,0,0,0
494375000,-83.671807671474,0,0,0
495500000,-82.3817351066776,0,0,0
496625000,-84.4011528703206,0,0,0
497750000,-81.2995049249372,0,0,0
498875000,-84.2119802565693,0,0,0
500000000,-86.9587863294471,0,0,0
END
