! FILETYPE CSV
! VERSION 3.0,1
! TIMESTAMP Saturday, 23 September 2023 04:05:12
! TIMEZONE (UTC+08:00) Kuala Lumpur, Singapore
! NAME Keysight Technologies
! MODEL N9913B
! SERIAL MY61262579
! FIRMWARE_VERSION A.12.20
! CORRECTION 
! Application SA
! SA Frequency Scan
!  CenterFreq 275000000
!  SpanFreq 450000000
!  Num TracePoints 1001
!  ResolutionBW 3000000
!  VideoBW 3000000
!  RF Attenuation 35
!  Preamp ON
!  External Gain 0
!  Detector Positive
!  TraceAvgCount 1 / 1
! Trace TIMESTAMP: 2023-09-23 04:05:12Z
! Trace GPS Info...
! GPS Latitude: 
! GPS Longitude: 
! GPS Elevation (m): 
! GPS Seconds Since Last Read: 
! CHECKSUM 0357545261
! DATA Freq,SA Clear-Write,SA Blank,SA Blank,SA Blank
! FREQ UNIT Hz
! DATA UNIT dBm
BEGIN
50000000,-34.8499869646581,0,0,0
50450000,-28.9788496433351,0,0,0
50900000,-38.3869402873544,0,0,0
51350000,-41.3001228297819,0,0,0
51800000,-45.314462753871,0,0,0
52250000,-41.0351612990189,0,0,0
52700000,-35.8581568518175,0,0,0
53150000,-31.7959347309367,0,0,0
53600000,-40.1462677989604,0,0,0
54050000,-40.9154948516473,0,0,0
54500000,-31.938142465904,0,0,0
54950000,-15.4500908196273,0,0,0
55400000,-37.3054394628298,0,0,0
55850000,-44.2323886814078,0,0,0
56300000,-36.2567938418793,0,0,0
56750000,-44.6598806134638,0,0,0
57200000,-41.0189232271261,0,0,0
57650000,-37.6680402937143,0,0,0
58100000,-31.2625481243329,0,0,0
58550000,-30.2896163848851,0,0,0
59000000,-48.7505178122966,0,0,0
59450000,-40.1521965312357,0,0,0
59900000,-42.053041853014,0,0,0
60350000,-44.5165694544034,0,0,0
60800000,-30.0627584556427,0,0,0
61250000,-36.9388900622727,0,0,0
61700000,-41.0640532814014,0,0,0
62150000,-39.6690331924197,0,0,0
62600000,-34.5096914853724,0,0,0
63050000,-22.1397390816946,0,0,0
63500000,-23.3432398415661,0,0,0
63950000,-25.5344824303683,0,0,0
64400000,-31.3916039951902,0,0,0
64850000,-11.9573354088645,0,0,0
65300000,-28.0048848172042,0,0,0
65750000,-15.9082988571491,0,0,0
66200000,-17.0932153105333,0,0,0
66650000,-39.0254219463473,0,0,0
67100000,-28.8590585622171,0,0,0
67550000,-34.8837096557018,0,0,0
68000000,-19.3695818705324,0,0,0
68450000,-22.6128228014876,0,0,0
68900000,-25.4242337889613,0,0,0
69350000,-31.945370968824,0,0,0
69800000,-22.7550042344995,0,0,0
70250000,-30.6759066507281,0,0,0
70700000,-11.9387057967734,0,0,0
71150000,-28.9259723182333,0,0,0
71600000,-31.9346733524874,0,0,0
72050000,-29.7698400632458,0,0,0
72500000,-39.8862422260937,0,0,0
72950000,-39.9281205903831,0,0,0
73400000,-34.3779409825008,0,0,0
73850000,-20.5018482699564,0,0,0
74300000,-32.6410593335254,0,0,0
74750000,-43.1188295777912,0,0,0
75200000,-33.0721993243793,0,0,0
75650000,-31.2998047087339,0,0,0
76100000,-32.2131089031355,0,0,0
76550000,-17.8082505935598,0,0,0
77000000,-39.7287681833899,0,0,0
77450000,-27.9385554494739,0,0,0
77900000,-33.9849517254647,0,0,0
78350000,-36.889098356901,0,0,0
78800000,-18.5252209489551,0,0,0
79250000,-24.1333039969165,0,0,0
79700000,-34.2100937788496,0,0,0
80150000,-38.3490923771083,0,0,0
80600000,-20.3959849714749,0,0,0
81050000,-33.4961914647366,0,0,0
81500000,-26.9000315541603,0,0,0
81950000,-51.2436711151869,0,0,0
82400000,-26.2416620972525,0,0,0
82850000,-43.5344198147997,0,0,0
83300000,-42.916601429912,0,0,0
83750000,-24.4274160230793,0,0,0
84200000,-24.573895432998,0,0,0
84650000,-46.0865367964881,0,0,0
85100000,-36.1846337029554,0,0,0
85550000,-22.0352712922753,0,0,0
86000000,-34.5483267955598,0,0,0
86450000,-33.43218307417,0,0,0
86900000,-22.658079232392,0,0,0
87350000,-28.7612118420887,0,0,0
87800000,-26.9351889693616,0,0,0
88250000,-20.4662241147582,0,0,0
88700000,-16.7428820107974,0,0,0
89150000,-14.7839165445192,0,0,0
89600000,-13.8101884271537,0,0,0
90050000,-8.08986632999835,0,0,0
90500000,-8.6281009714073,0,0,0
90950000,-9.29942680216786,0,0,0
91400000,-7.7435619250676,0,0,0
91850000,-8.54119106783376,0,0,0
92300000,-9.99746827802533,0,0,0
92750000,-9.08549746975573,0,0,0
93200000,-16.6672997868752,0,0,0
93650000,-15.1234646842513,0,0,0
94100000,-18.6602546301468,0,0,0
94550000,-15.9817702535626,0,0,0
95000000,-23.8468965191447,0,0,0
95450000,-21.0160170280784,0,0,0
95900000,-25.147562241498,0,0,0
96350000,-16.1997362072103,0,0,0
96800000,-27.8665510317367,0,0,0
97250000,-20.5533159489518,0,0,0
97700000,-41.2659855960845,0,0,0
98150000,-39.8790410084751,0,0,0
98600000,-25.3219219100417,0,0,0
99050000,-27.9801423797661,0,0,0
99500000,-42.4785713446034,0,0,0
99950000,-31.5240386376624,0,0,0
100400000,-36.2638283544582,0,0,0
100850000,-23.5656789529534,0,0,0
101300000,-30.7552402054513,0,0,0
101750000,-32.4150003913557,0,0,0
102200000,-36.955904933614,0,0,0
102650000,-54.7774797657746,0,0,0
103100000,-22.8993748599445,0,0,0
103550000,-44.2190739236451,0,0,0
104000000,-37.561981766928,0,0,0
104450000,-38.771225380951,0,0,0
104900000,-45.9844665986956,0,0,0
105350000,-22.2186203303921,0,0,0
105800000,-34.4302515558505,0,0,0
106250000,-35.5817471490132,0,0,0
106700000,-36.2241508924736,0,0,0
107150000,-42.4761292904993,0,0,0
107600000,-36.9230259448636,0,0,0
108050000,-32.9652306799185,0,0,0
108500000,-34.0689246205787,0,0,0
108950000,-48.360172561769,0,0,0
109400000,-36.3530900579501,0,0,0
109850000,-35.6559498243363,0,0,0
110300000,-45.8839691242304,0,0,0
110750000,-45.4914740337056,0,0,0
111200000,-40.8430675460333,0,0,0
111650000,-42.7586792664148,0,0,0
112100000,-39.5533513758685,0,0,0
112550000,-50.7755305509159,0,0,0
113000000,-45.249938823493,0,0,0
113450000,-42.7879189018208,0,0,0
113900000,-34.0506518695607,0,0,0
114350000,-40.4932119633095,0,0,0
114800000,-28.4690809261734,0,0,0
115250000,-37.9696997131329,0,0,0
115700000,-35.0331863337252,0,0,0
116150000,-42.3101005498812,0,0,0
116600000,-37.0573431582601,0,0,0
117050000,-35.4403686680316,0,0,0
117500000,-36.2697729405958,0,0,0
117950000,-39.8833420686554,0,0,0
118400000,-41.652430939417,0,0,0
118850000,-24.7670357133544,0,0,0
119300000,-30.5468894113119,0,0,0
119750000,-46.4045035906394,0,0,0
120200000,-33.3358535841265,0,0,0
120650000,-39.7026651125489,0,0,0
121100000,-47.8572884262141,0,0,0
121550000,-42.892709088166,0,0,0
122000000,-50.0503094638435,0,0,0
122450000,-31.4141813865175,0,0,0
122900000,-37.3549206979872,0,0,0
123350000,-44.4243781464042,0,0,0
123800000,-39.8234182716501,0,0,0
124250000,-44.0666163089973,0,0,0
124700000,-36.9525379302183,0,0,0
125150000,-32.7032200164516,0,0,0
125600000,-35.8431932150888,0,0,0
126050000,-26.8109848196688,0,0,0
126500000,-39.8830486878411,0,0,0
126950000,-22.5355132927488,0,0,0
127400000,-41.3783420894725,0,0,0
127850000,-20.8574721013415,0,0,0
128300000,-52.0327834727211,0,0,0
128750000,-32.3397194033745,0,0,0
129200000,-32.2652781346238,0,0,0
129650000,-44.2469000084854,0,0,0
130100000,-30.7001391164147,0,0,0
130550000,-26.3924155593188,0,0,0
131000000,-44.1054711168502,0,0,0
131450000,-27.56559698953,0,0,0
131900000,-41.5472493020934,0,0,0
132350000,-31.8621526261563,0,0,0
132800000,-39.035576123927,0,0,0
133250000,-39.6000734041938,0,0,0
133700000,-36.7106602416394,0,0,0
134150000,-34.6879455616827,0,0,0
134600000,-54.1449023759834,0,0,0
135050000,-49.7749860448035,0,0,0
135500000,-29.6922618101326,0,0,0
135950000,-53.536607316301,0,0,0
136400000,-32.6612909244307,0,0,0
136850000,-36.5683550043948,0,0,0
137300000,-40.1480872888478,0,0,0
137750000,-53.7112520627578,0,0,0
138200000,-39.9766003578347,0,0,0
138650000,-50.2702695183286,0,0,0
139100000,-35.0945285870857,0,0,0
139550000,-45.9344974331472,0,0,0
140000000,-38.7644184755774,0,0,0
140450000,-39.958360154913,0,0,0
140900000,-27.0926228778905,0,0,0
141350000,-32.5947087922545,0,0,0
141800000,-39.4285442193892,0,0,0
142250000,-50.482516547197,0,0,0
142700000,-38.3772189238261,0,0,0
143150000,-45.6789480496921,0,0,0
143600000,-33.696725436436,0,0,0
144050000,-43.4453471071399,0,0,0
144500000,-37.8955769889567,0,0,0
144950000,-40.0621338110371,0,0,0
145400000,-32.9693577411633,0,0,0
145850000,-39.4514177418704,0,0,0
146300000,-35.9012575514701,0,0,0
146750000,-44.931798842378,0,0,0
147200000,-27.5519551410421,0,0,0
147650000,-46.6497323644505,0,0,0
148100000,-36.5585990500892,0,0,0
148550000,-27.2464032423792,0,0,0
149000000,-31.7069478609254,0,0,0
149450000,-20.8852485773678,0,0,0
149900000,-31.0391072511749,0,0,0
150350000,-29.868836203378,0,0,0
150800000,-26.5329209395756,0,0,0
151250000,-25.1458687488881,0,0,0
151700000,-21.7038187069795,0,0,0
152150000,-26.7519365409268,0,0,0
152600000,-26.662985473434,0,0,0
153050000,-37.9921962543884,0,0,0
153500000,-26.0857057765764,0,0,0
153950000,-23.4506207346191,0,0,0
154400000,-30.4422744417137,0,0,0
154850000,-29.1333876358614,0,0,0
155300000,-34.68702163565,0,0,0
155750000,-55.6752337665397,0,0,0
156200000,-32.4806673356645,0,0,0
156650000,-39.1399657321376,0,0,0
157100000,-38.3842955586776,0,0,0
157550000,-38.7220315606477,0,0,0
158000000,-35.4121972233011,0,0,0
158450000,-30.5560776464277,0,0,0
158900000,-55.8763556432487,0,0,0
159350000,-44.9045546405092,0,0,0
159800000,-46.8130194013351,0,0,0
160250000,-39.4370665257423,0,0,0
160700000,-42.0744725031114,0,0,0
161150000,-47.2902031470855,0,0,0
161600000,-47.8969849723829,0,0,0
162050000,-38.2421955162026,0,0,0
162500000,-42.3057573137325,0,0,0
162950000,-51.7877986328067,0,0,0
163400000,-33.620406906051,0,0,0
163850000,-44.0170045744322,0,0,0
164300000,-46.8178098697717,0,0,0
164750000,-43.9203136530555,0,0,0
165200000,-38.2083305674445,0,0,0
165650000,-45.2487843938544,0,0,0
166100000,-51.8989190446965,0,0,0
166550000,-34.1338458449239,0,0,0
167000000,-43.0501816222906,0,0,0
167450000,-37.0387956133535,0,0,0
167900000,-44.6481751872827,0,0,0
168350000,-35.0016118669946,0,0,0
168800000,-48.3459381648635,0,0,0
169250000,-45.5224178439993,0,0,0
169700000,-39.4556979633687,0,0,0
170150000,-44.1915611510812,0,0,0
170600000,-36.0577314807308,0,0,0
171050000,-32.5110064319055,0,0,0
171500000,-41.206687813769,0,0,0
171950000,-50.5110149651637,0,0,0
172400000,-38.9858506903436,0,0,0
172850000,-44.4550692462663,0,0,0
173300000,-38.8411320850162,0,0,0
173750000,-40.7976423649196,0,0,0
174200000,-53.7589563587184,0,0,0
174650000,-45.9858537309059,0,0,0
175100000,-35.8440159978103,0,0,0
175550000,-40.1111149202967,0,0,0
176000000,-45.0512300755446,0,0,0
176450000,-33.5285429416703,0,0,0
176900000,-36.3831275513788,0,0,0
177350000,-39.3746646674202,0,0,0
177800000,-51.750595796005,0,0,0
178250000,-43.182872936663,0,0,0
178700000,-39.9201982624482,0,0,0
179150000,-38.0465329758449,0,0,0
179600000,-28.361709986104,0,0,0
180050000,-35.9750207817527,0,0,0
180500000,-49.5437038335745,0,0,0
180950000,-47.2587149442756,0,0,0
181400000,-42.8267426592357,0,0,0
181850000,-43.2552791409653,0,0,0
182300000,-39.0698449167773,0,0,0
182750000,-42.791444515039,0,0,0
183200000,-51.7660848826089,0,0,0
183650000,-43.3636356153341,0,0,0
184100000,-42.8411439760608,0,0,0
184550000,-46.7144650642367,0,0,0
185000000,-43.3898865977022,0,0,0
185450000,-39.3675406160169,0,0,0
185900000,-34.8517945075306,0,0,0
186350000,-35.5364901769165,0,0,0
186800000,-33.9651727758289,0,0,0
187250000,-46.7877244197088,0,0,0
187700000,-49.2075007168012,0,0,0
188150000,-40.8159657696404,0,0,0
188600000,-48.8991284941492,0,0,0
189050000,-47.7594155138887,0,0,0
189500000,-47.2629759063556,0,0,0
189950000,-47.9024634577625,0,0,0
190400000,-46.792547945346,0,0,0
190850000,-49.8968448953605,0,0,0
191300000,-47.9201882748527,0,0,0
191750000,-30.7283374580577,0,0,0
192200000,-44.8343101603563,0,0,0
192650000,-32.7780766417702,0,0,0
193100000,-46.2636792239891,0,0,0
193550000,-43.5346238061398,0,0,0
194000000,-43.1499303226082,0,0,0
194450000,-43.6194168679878,0,0,0
194900000,-41.1712225777333,0,0,0
195350000,-57.7683875540684,0,0,0
195800000,-40.0411211399523,0,0,0
196250000,-54.9045892348539,0,0,0
196700000,-43.5211378753673,0,0,0
197150000,-39.7771850512442,0,0,0
197600000,-45.2048239232509,0,0,0
198050000,-52.7175932180882,0,0,0
198500000,-43.2814071405452,0,0,0
198950000,-38.7242215668017,0,0,0
199400000,-41.5420619214897,0,0,0
199850000,-44.2392430801919,0,0,0
200300000,-44.6866678999058,0,0,0
200750000,-46.0863781754867,0,0,0
201200000,-50.4222809475208,0,0,0
201650000,-37.7194154120789,0,0,0
202100000,-48.7674571234362,0,0,0
202550000,-55.8617915790682,0,0,0
203000000,-46.6466552930799,0,0,0
203450000,-51.4037027600541,0,0,0
203900000,-45.8096811822575,0,0,0
204350000,-62.1163127728595,0,0,0
204800000,-46.8772145409921,0,0,0
205250000,-46.6657500864814,0,0,0
205700000,-47.279266889966,0,0,0
206150000,-44.2251197789572,0,0,0
206600000,-46.4510849307615,0,0,0
207050000,-48.6065444309291,0,0,0
207500000,-41.8982361692864,0,0,0
207950000,-37.6183736341847,0,0,0
208400000,-48.9585491201326,0,0,0
208850000,-58.8004569182604,0,0,0
209300000,-47.506547254276,0,0,0
209750000,-39.675658995607,0,0,0
210200000,-44.2072146962331,0,0,0
210650000,-46.0266669409508,0,0,0
211100000,-42.7922332191979,0,0,0
211550000,-42.7152991942442,0,0,0
212000000,-39.8795653636223,0,0,0
212450000,-46.1892779515946,0,0,0
212900000,-43.4413092385098,0,0,0
213350000,-40.7506556400013,0,0,0
213800000,-44.0341592945148,0,0,0
214250000,-39.6674814187686,0,0,0
214700000,-45.6879520682928,0,0,0
215150000,-54.5105392072604,0,0,0
215600000,-50.9546393873322,0,0,0
216050000,-54.4786766341674,0,0,0
216500000,-54.9471631125085,0,0,0
216950000,-55.4367702435613,0,0,0
217400000,-54.127182960784,0,0,0
217850000,-46.3935676883548,0,0,0
218300000,-49.2739249982452,0,0,0
218750000,-38.228999999337,0,0,0
219200000,-44.1219380875432,0,0,0
219650000,-33.6867835919441,0,0,0
220100000,-54.6461868831543,0,0,0
220550000,-40.7211216564306,0,0,0
221000000,-56.2574996803206,0,0,0
221450000,-46.017989051842,0,0,0
221900000,-42.9883361787856,0,0,0
222350000,-48.8506970402878,0,0,0
222800000,-41.8447875492437,0,0,0
223250000,-55.6050861830775,0,0,0
223700000,-56.1332998591822,0,0,0
224150000,-53.8456141745294,0,0,0
224600000,-29.0338647194431,0,0,0
225050000,-47.9752809186106,0,0,0
225500000,-67.2159944379366,0,0,0
225950000,-50.7238478604175,0,0,0
226400000,-45.5638151290348,0,0,0
226850000,-49.805959233192,0,0,0
227300000,-32.0174988443116,0,0,0
227750000,-54.8223810440916,0,0,0
228200000,-43.784137667199,0,0,0
228650000,-47.9296749017896,0,0,0
229100000,-49.5537090773431,0,0,0
229550000,-58.380774573573,0,0,0
230000000,-44.0282962385688,0,0,0
230450000,-56.4621420434365,0,0,0
230900000,-47.9071253070832,0,0,0
231350000,-41.7868105192494,0,0,0
231800000,-21.780852821029,0,0,0
232250000,-45.987874585571,0,0,0
232700000,-52.5767954090957,0,0,0
233150000,-48.1690352328386,0,0,0
233600000,-44.881705785026,0,0,0
234050000,-43.781786442657,0,0,0
234500000,-38.5079357350315,0,0,0
234950000,-52.5529696813236,0,0,0
235400000,-52.2523766770927,0,0,0
235850000,-38.1837987144543,0,0,0
236300000,-43.2108792476211,0,0,0
236750000,-39.9575491549478,0,0,0
237200000,-44.3273660557854,0,0,0
237650000,-43.4390758869277,0,0,0
238100000,-47.3731899543875,0,0,0
238550000,-33.7216353174566,0,0,0
239000000,-50.0539447276466,0,0,0
239450000,-43.6019502675321,0,0,0
239900000,-38.7450034992184,0,0,0
240350000,-47.1393638807314,0,0,0
240800000,-42.1244082434808,0,0,0
241250000,-44.3097980240202,0,0,0
241700000,-54.1952129984848,0,0,0
242150000,-44.8899800884862,0,0,0
242600000,-44.7369389093546,0,0,0
243050000,-45.8208015537152,0,0,0
243500000,-35.7472575520962,0,0,0
243950000,-54.6855202958791,0,0,0
244400000,-47.5150645661231,0,0,0
244850000,-60.2741249239671,0,0,0
245300000,-58.5242565987829,0,0,0
245750000,-52.6861130219086,0,0,0
246200000,-53.0807062168827,0,0,0
246650000,-47.2542940156295,0,0,0
247100000,-50.3854146983384,0,0,0
247550000,-54.4244260599184,0,0,0
248000000,-47.1806661641895,0,0,0
248450000,-48.5797435467184,0,0,0
248900000,-47.5754025586345,0,0,0
249350000,-50.7817796140985,0,0,0
249800000,-48.0892137858153,0,0,0
250250000,-52.3208812459207,0,0,0
250700000,-58.142792056393,0,0,0
251150000,-52.0505898609072,0,0,0
251600000,-59.4268394726377,0,0,0
252050000,-40.7478018141592,0,0,0
252500000,-46.9149748381359,0,0,0
252950000,-55.2901799011082,0,0,0
253400000,-44.2149440103707,0,0,0
253850000,-43.7591556770098,0,0,0
254300000,-46.4813898462322,0,0,0
254750000,-41.0710623540827,0,0,0
255200000,-50.9607932890333,0,0,0
255650000,-45.205745042223,0,0,0
256100000,-62.0491092260931,0,0,0
256550000,-43.1039149617863,0,0,0
257000000,-55.3281444157087,0,0,0
257450000,-39.8191593925471,0,0,0
257900000,-62.0568262005623,0,0,0
258350000,-38.6308741778594,0,0,0
258800000,-51.1181385188343,0,0,0
259250000,-41.0976556539359,0,0,0
259700000,-48.8198535416392,0,0,0
260150000,-38.2682507573769,0,0,0
260600000,-44.3524194911362,0,0,0
261050000,-42.3107127297802,0,0,0
261500000,-48.4119634292861,0,0,0
261950000,-48.8663986373294,0,0,0
262400000,-50.8816162724075,0,0,0
262850000,-40.9039701688345,0,0,0
263300000,-43.6797295472912,0,0,0
263750000,-46.2170536859862,0,0,0
264200000,-51.3757653968426,0,0,0
264650000,-39.690348632003,0,0,0
265100000,-43.8280282534416,0,0,0
265550000,-37.6247133430167,0,0,0
266000000,-51.8216799724044,0,0,0
266450000,-44.3574357828102,0,0,0
266900000,-43.4807338221111,0,0,0
267350000,-45.010124442576,0,0,0
267800000,-41.3471175813426,0,0,0
268250000,-40.3279011848593,0,0,0
268700000,-41.1647537277778,0,0,0
269150000,-38.8739546901591,0,0,0
269600000,-47.3612877030149,0,0,0
270050000,-43.6748588747832,0,0,0
270500000,-38.6545678995194,0,0,0
270950000,-37.3570565954837,0,0,0
271400000,-41.0031109706443,0,0,0
271850000,-44.4494514541022,0,0,0
272300000,-41.2800691878145,0,0,0
272750000,-34.8208500154363,0,0,0
273200000,-42.6798603890596,0,0,0
273650000,-32.1342293492702,0,0,0
274100000,-38.4094583110895,0,0,0
274550000,-43.841273202708,0,0,0
275000000,-44.7675829112364,0,0,0
275450000,-36.070609387447,0,0,0
275900000,-42.5675190654906,0,0,0
276350000,-38.9723940270127,0,0,0
276800000,-33.9348727344116,0,0,0
277250000,-39.1001536165013,0,0,0
277700000,-35.9922057430456,0,0,0
278150000,-31.1302573975074,0,0,0
278600000,-45.1945896620906,0,0,0
279050000,-46.5262858901143,0,0,0
279500000,-41.7366117068616,0,0,0
279950000,-38.4999622699261,0,0,0
280400000,-39.1717305391834,0,0,0
280850000,-53.3096868956738,0,0,0
281300000,-33.6992842855108,0,0,0
281750000,-43.0697204366262,0,0,0
282200000,-40.3407335144259,0,0,0
282650000,-41.3239328253043,0,0,0
283100000,-37.9164513474303,0,0,0
283550000,-49.0476257660208,0,0,0
284000000,-41.0729429151149,0,0,0
284450000,-39.3854385486767,0,0,0
284900000,-32.380193985138,0,0,0
285350000,-40.9681608280357,0,0,0
285800000,-36.3587709597094,0,0,0
286250000,-34.7720230553927,0,0,0
286700000,-49.9139189531434,0,0,0
287150000,-37.2755956628416,0,0,0
287600000,-45.6539317357418,0,0,0
288050000,-45.8226937964947,0,0,0
288500000,-67.6786968111039,0,0,0
288950000,-44.1834592666555,0,0,0
289400000,-46.3101439609026,0,0,0
289850000,-38.3750826389474,0,0,0
290300000,-47.0710196336257,0,0,0
290750000,-53.7934037578803,0,0,0
291200000,-45.8163569600779,0,0,0
291650000,-36.7659676876362,0,0,0
292100000,-62.6088809698168,0,0,0
292550000,-49.2539826103719,0,0,0
293000000,-49.4943348607709,0,0,0
293450000,-45.0518063294984,0,0,0
293900000,-42.5329593637872,0,0,0
294350000,-55.7477959861476,0,0,0
294800000,-42.1134202659765,0,0,0
295250000,-54.1712892832392,0,0,0
295700000,-45.9759078414219,0,0,0
296150000,-39.4301915634609,0,0,0
296600000,-54.3643060393498,0,0,0
297050000,-45.637728130087,0,0,0
297500000,-36.411734708124,0,0,0
297950000,-58.1873889449725,0,0,0
298400000,-43.0042762658076,0,0,0
298850000,-52.3533818054348,0,0,0
299300000,-44.234592252987,0,0,0
299750000,-49.7355604361757,0,0,0
300200000,-40.6333817819053,0,0,0
300650000,-47.1806698283349,0,0,0
301100000,-40.0011543436828,0,0,0
301550000,-43.7274259659509,0,0,0
302000000,-41.3897042891165,0,0,0
302450000,-47.4100075608781,0,0,0
302900000,-39.4244996597608,0,0,0
303350000,-31.3494285312356,0,0,0
303800000,-45.1580470458899,0,0,0
304250000,-46.4121985506124,0,0,0
304700000,-44.9945929712278,0,0,0
305150000,-38.0061426142481,0,0,0
305600000,-45.356621374252,0,0,0
306050000,-54.3447335619665,0,0,0
306500000,-43.8072348705562,0,0,0
306950000,-51.0818514328644,0,0,0
307400000,-55.7533890777777,0,0,0
307850000,-47.7287149175055,0,0,0
308300000,-45.7999587435302,0,0,0
308750000,-55.7946730878306,0,0,0
309200000,-46.4571773011938,0,0,0
309650000,-72.4690513002573,0,0,0
310100000,-50.4081305383535,0,0,0
310550000,-66.3147196368112,0,0,0
311000000,-56.2998318141197,0,0,0
311450000,-55.4639804477164,0,0,0
311900000,-65.018492156983,0,0,0
312350000,-62.225100715385,0,0,0
312800000,-56.0871639625111,0,0,0
313250000,-59.1779077240566,0,0,0
313700000,-67.0449169216337,0,0,0
314150000,-47.1322059388365,0,0,0
314600000,-57.5335436020753,0,0,0
315050000,-48.7799795535858,0,0,0
315500000,-51.0105242703759,0,0,0
315950000,-51.4410363972657,0,0,0
316400000,-67.958793860993,0,0,0
316850000,-61.461561973175,0,0,0
317300000,-58.0958356397117,0,0,0
317750000,-51.623785171215,0,0,0
318200000,-49.9798963733864,0,0,0
318650000,-53.7063811456111,0,0,0
319100000,-49.4441608431404,0,0,0
319550000,-51.0969319098107,0,0,0
320000000,-55.8392114256615,0,0,0
320450000,-44.3199723052533,0,0,0
320900000,-51.03295688376,0,0,0
321350000,-54.1595416410873,0,0,0
321800000,-47.4030881147049,0,0,0
322250000,-54.0169893274906,0,0,0
322700000,-54.1444735394661,0,0,0
323150000,-59.9464282381625,0,0,0
323600000,-49.2349216479428,0,0,0
324050000,-54.4575105048741,0,0,0
324500000,-45.2761874875218,0,0,0
324950000,-54.6765882601879,0,0,0
325400000,-60.9535095398881,0,0,0
325850000,-52.228303687293,0,0,0
326300000,-52.4196659637882,0,0,0
326750000,-61.7718970408773,0,0,0
327200000,-62.7764482650971,0,0,0
327650000,-48.6961749718902,0,0,0
328100000,-58.1193605942876,0,0,0
328550000,-51.8615954323822,0,0,0
329000000,-53.224029484472,0,0,0
329450000,-51.4259912752333,0,0,0
329900000,-55.8274498157841,0,0,0
330350000,-50.7297433758452,0,0,0
330800000,-69.3079865845365,0,0,0
331250000,-50.4623307224411,0,0,0
331700000,-53.7628548155279,0,0,0
332150000,-50.6253081899731,0,0,0
332600000,-61.4725686579186,0,0,0
333050000,-52.052260963833,0,0,0
333500000,-62.1009956538831,0,0,0
333950000,-58.5754672579091,0,0,0
334400000,-57.8439847542612,0,0,0
334850000,-60.567742344392,0,0,0
335300000,-51.0901475200789,0,0,0
335750000,-57.6296871376276,0,0,0
336200000,-58.9432156135592,0,0,0
336650000,-63.8574615669854,0,0,0
337100000,-56.7288643039747,0,0,0
337550000,-60.1647289178698,0,0,0
338000000,-53.9048036773026,0,0,0
338450000,-51.2177844274561,0,0,0
338900000,-54.4952988455954,0,0,0
339350000,-59.7096193453878,0,0,0
339800000,-54.4351394809952,0,0,0
340250000,-60.3888409766292,0,0,0
340700000,-59.4914911061385,0,0,0
341150000,-61.5959631093723,0,0,0
341600000,-54.0292275763675,0,0,0
342050000,-55.9807087207969,0,0,0
342500000,-54.802853810076,0,0,0
342950000,-52.3181810563703,0,0,0
343400000,-63.9903786757691,0,0,0
343850000,-49.6722683106062,0,0,0
344300000,-71.6695753938105,0,0,0
344750000,-50.4928305112522,0,0,0
345200000,-47.342302738131,0,0,0
345650000,-55.309964145077,0,0,0
346100000,-55.1501822988522,0,0,0
346550000,-49.191055746868,0,0,0
347000000,-57.434606435623,0,0,0
347450000,-56.6698308818227,0,0,0
347900000,-57.0117918417786,0,0,0
348350000,-56.7277229913053,0,0,0
348800000,-58.0606752039138,0,0,0
349250000,-51.4888511987636,0,0,0
349700000,-52.9183512188718,0,0,0
350150000,-46.7146144754618,0,0,0
350600000,-49.9802728145813,0,0,0
351050000,-56.470873114321,0,0,0
351500000,-59.0227505580456,0,0,0
351950000,-50.5491264226042,0,0,0
352400000,-60.3618744507388,0,0,0
352850000,-52.427697852663,0,0,0
353300000,-54.2828841431026,0,0,0
353750000,-49.2176521679091,0,0,0
354200000,-62.3254239288593,0,0,0
354650000,-60.1654240318117,0,0,0
355100000,-48.4080558140929,0,0,0
355550000,-43.2284862835509,0,0,0
356000000,-52.7840418761291,0,0,0
356450000,-48.6442584819378,0,0,0
356900000,-55.9759827676218,0,0,0
357350000,-52.431514742247,0,0,0
357800000,-57.7730814140674,0,0,0
358250000,-59.3590007572217,0,0,0
358700000,-54.6269112225638,0,0,0
359150000,-61.1234533675975,0,0,0
359600000,-55.0098236142111,0,0,0
360050000,-51.1454820111113,0,0,0
360500000,-53.3313833991939,0,0,0
360950000,-55.1590774263382,0,0,0
361400000,-60.8802228483144,0,0,0
361850000,-58.3896286009215,0,0,0
362300000,-58.813350713995,0,0,0
362750000,-48.9232697997035,0,0,0
363200000,-55.9550049506068,0,0,0
363650000,-57.0442601900692,0,0,0
364100000,-55.9797222723373,0,0,0
364550000,-58.8631987503533,0,0,0
365000000,-55.1307145900741,0,0,0
365450000,-52.8585476854595,0,0,0
365900000,-42.7244043126308,0,0,0
366350000,-57.9894615634098,0,0,0
366800000,-47.4646752624227,0,0,0
367250000,-82.7626994830489,0,0,0
367700000,-62.0556124211312,0,0,0
368150000,-55.917492191836,0,0,0
368600000,-58.3131663123321,0,0,0
369050000,-57.3189656975899,0,0,0
369500000,-66.8474633519196,0,0,0
369950000,-59.6860327396469,0,0,0
370400000,-49.4518991269903,0,0,0
370850000,-56.0813836474692,0,0,0
371300000,-62.1387094218487,0,0,0
371750000,-59.1921842088707,0,0,0
372200000,-51.834922143997,0,0,0
372650000,-57.7930372321928,0,0,0
373100000,-50.4048594028516,0,0,0
373550000,-63.8070530572229,0,0,0
374000000,-62.0334627054369,0,0,0
374450000,-64.487360846635,0,0,0
374900000,-57.4223015727919,0,0,0
375350000,-53.3961389952044,0,0,0
375800000,-61.6412890791641,0,0,0
376250000,-52.4677955478638,0,0,0
376700000,-57.4458426027751,0,0,0
377150000,-62.7189794171521,0,0,0
377600000,-54.6044335727302,0,0,0
378050000,-66.8232926636097,0,0,0
378500000,-61.9736752846892,0,0,0
378950000,-52.7000829239851,0,0,0
379400000,-73.459553432851,0,0,0
379850000,-63.6199817013082,0,0,0
380300000,-55.27482553838,0,0,0
380750000,-55.5862906637049,0,0,0
381200000,-56.7313506462424,0,0,0
381650000,-54.366961391469,0,0,0
382100000,-63.8599902730613,0,0,0
382550000,-55.3088965647818,0,0,0
383000000,-54.215974542504,0,0,0
383450000,-56.1961117961347,0,0,0
383900000,-50.5611229874994,0,0,0
384350000,-52.7043028416195,0,0,0
384800000,-51.6091303563668,0,0,0
385250000,-47.5160887116162,0,0,0
385700000,-54.6102562036654,0,0,0
386150000,-55.2125070701177,0,0,0
386600000,-48.165898222714,0,0,0
387050000,-60.791777872948,0,0,0
387500000,-47.4379363050628,0,0,0
387950000,-54.178835781838,0,0,0
388400000,-54.0292638257959,0,0,0
388850000,-50.5009913495373,0,0,0
389300000,-51.2259946402115,0,0,0
389750000,-58.0314070269772,0,0,0
390200000,-53.1482870117636,0,0,0
390650000,-51.6007194071642,0,0,0
391100000,-53.1617083354806,0,0,0
391550000,-51.2923167915834,0,0,0
392000000,-50.834836791764,0,0,0
392450000,-53.8557150813445,0,0,0
392900000,-56.0771825649405,0,0,0
393350000,-49.3923367202387,0,0,0
393800000,-54.8341261840651,0,0,0
394250000,-56.648696090205,0,0,0
394700000,-50.1464414723708,0,0,0
395150000,-59.7927894849439,0,0,0
395600000,-49.9415717608798,0,0,0
396050000,-51.8121768689403,0,0,0
396500000,-51.4435822856228,0,0,0
396950000,-64.5671625729987,0,0,0
397400000,-50.2734488302727,0,0,0
397850000,-51.3656717237728,0,0,0
398300000,-61.226208391933,0,0,0
398750000,-51.0359496092539,0,0,0
399200000,-51.5794454276899,0,0,0
399650000,-50.5077725379481,0,0,0
400100000,-48.3234633592018,0,0,0
400550000,-62.2048477514575,0,0,0
401000000,-61.7323035782964,0,0,0
401450000,-55.1495995102356,0,0,0
401900000,-56.6643326412135,0,0,0
402350000,-58.942219783689,0,0,0
402800000,-49.7013122723569,0,0,0
403250000,-59.4139200574692,0,0,0
403700000,-52.3233664629828,0,0,0
404150000,-55.3920511465676,0,0,0
404600000,-51.9557655657048,0,0,0
405050000,-54.4522957457478,0,0,0
405500000,-52.4967284284975,0,0,0
405950000,-50.4974551002767,0,0,0
406400000,-56.367650558455,0,0,0
406850000,-52.0304732435028,0,0,0
407300000,-51.5716104494892,0,0,0
407750000,-57.1330582645835,0,0,0
408200000,-52.6383782020903,0,0,0
408650000,-56.669934860894,0,0,0
409100000,-57.1804149894849,0,0,0
409550000,-50.6666772478591,0,0,0
410000000,-62.6216381453868,0,0,0
410450000,-55.6426463477724,0,0,0
410900000,-64.145771333962,0,0,0
411350000,-66.3179746949331,0,0,0
411800000,-66.4994722712684,0,0,0
412250000,-58.7221092521408,0,0,0
412700000,-54.7555155557687,0,0,0
413150000,-61.0720261395972,0,0,0
413600000,-60.241633367132,0,0,0
414050000,-58.3387180995248,0,0,0
414500000,-64.4209395242108,0,0,0
414950000,-66.5409977335445,0,0,0
415400000,-58.8523980402108,0,0,0
415850000,-57.1931167368144,0,0,0
416300000,-59.8400369088125,0,0,0
416750000,-51.5277096529114,0,0,0
417200000,-60.8430623150594,0,0,0
417650000,-54.6994496651056,0,0,0
418100000,-62.8355946872674,0,0,0
418550000,-54.1236837525444,0,0,0
419000000,-57.4482727870264,0,0,0
419450000,-54.198400709317,0,0,0
419900000,-51.5570775992172,0,0,0
420350000,-57.8450478338919,0,0,0
420800000,-59.9351693069936,0,0,0
421250000,-58.0743651552881,0,0,0
421700000,-55.6805446435068,0,0,0
422150000,-57.3180656678887,0,0,0
422600000,-64.9438564029709,0,0,0
423050000,-54.8722435881248,0,0,0
423500000,-48.997303685448,0,0,0
423950000,-59.4152765764662,0,0,0
424400000,-67.07323487538,0,0,0
424850000,-57.794262025701,0,0,0
425300000,-57.3527257754626,0,0,0
425750000,-56.9071183347615,0,0,0
426200000,-66.9126695643918,0,0,0
426650000,-61.2320065094371,0,0,0
427100000,-63.290842294167,0,0,0
427550000,-55.3524552876827,0,0,0
428000000,-57.6031200152914,0,0,0
428450000,-55.616563752252,0,0,0
428900000,-62.5342622626622,0,0,0
429350000,-53.8772132168069,0,0,0
429800000,-66.142864119704,0,0,0
430250000,-79.1673489820925,0,0,0
430700000,-70.3103431599556,0,0,0
431150000,-55.0628339120766,0,0,0
431600000,-52.5790525344755,0,0,0
432050000,-58.8467204888411,0,0,0
432500000,-57.424287776194,0,0,0
432950000,-58.9360472109524,0,0,0
433400000,-59.8058446408923,0,0,0
433850000,-53.9831516657116,0,0,0
434300000,-53.8312927045989,0,0,0
434750000,-54.7907513907337,0,0,0
435200000,-55.7389336051991,0,0,0
435650000,-59.9214688527428,0,0,0
436100000,-60.8697556254073,0,0,0
436550000,-62.0814702601209,0,0,0
437000000,-64.4927644608265,0,0,0
437450000,-51.7144492087621,0,0,0
437900000,-57.3226616098761,0,0,0
438350000,-53.7270413705207,0,0,0
438800000,-50.7000446349354,0,0,0
439250000,-64.4360095936418,0,0,0
439700000,-54.5535163009039,0,0,0
440150000,-58.7259400525296,0,0,0
440600000,-61.9520069787786,0,0,0
441050000,-74.556130532907,0,0,0
441500000,-52.7126067887461,0,0,0
441950000,-55.8644875525043,0,0,0
442400000,-48.8671858169873,0,0,0
442850000,-58.9478667500673,0,0,0
443300000,-51.1606870899843,0,0,0
443750000,-60.2569873454621,0,0,0
444200000,-61.6134246779179,0,0,0
444650000,-50.8695995850903,0,0,0
445100000,-48.2119912861129,0,0,0
445550000,-58.0888687228622,0,0,0
446000000,-51.4842668628019,0,0,0
446450000,-52.5403325557791,0,0,0
446900000,-47.9078125017606,0,0,0
447350000,-55.1498575279266,0,0,0
447800000,-53.6020764522231,0,0,0
448250000,-51.7436971899188,0,0,0
448700000,-54.9098031661963,0,0,0
449150000,-63.2106535128747,0,0,0
449600000,-61.1714146966535,0,0,0
450050000,-69.1192626296362,0,0,0
450500000,-61.8255985303716,0,0,0
450950000,-64.0397766429368,0,0,0
451400000,-64.0502194622742,0,0,0
451850000,-48.579988541476,0,0,0
452300000,-52.3657810265287,0,0,0
452750000,-55.3510169133003,0,0,0
453200000,-50.8731375084143,0,0,0
453650000,-56.5007758633932,0,0,0
454100000,-56.301999612789,0,0,0
454550000,-65.631127593175,0,0,0
455000000,-60.6475577060249,0,0,0
455450000,-52.0061068979157,0,0,0
455900000,-58.736621185478,0,0,0
456350000,-56.817890607021,0,0,0
456800000,-56.4434622339606,0,0,0
457250000,-68.5665660421476,0,0,0
457700000,-51.8653549440116,0,0,0
458150000,-50.1365331878867,0,0,0
458600000,-54.7074708901093,0,0,0
459050000,-59.3581499284462,0,0,0
459500000,-53.4697365800585,0,0,0
459950000,-55.3907213254677,0,0,0
460400000,-64.4268694781879,0,0,0
460850000,-57.6466832232558,0,0,0
461300000,-51.5900293572914,0,0,0
461750000,-61.7968528712252,0,0,0
462200000,-55.9750009810949,0,0,0
462650000,-58.7253066087541,0,0,0
463100000,-56.5918708923198,0,0,0
463550000,-66.1613676077435,0,0,0
464000000,-53.2134817800178,0,0,0
464450000,-55.4305873668161,0,0,0
464900000,-66.0408144845778,0,0,0
465350000,-68.6466334176396,0,0,0
465800000,-62.0003496299018,0,0,0
466250000,-62.8310139566605,0,0,0
466700000,-50.1624139391627,0,0,0
467150000,-61.1486739814589,0,0,0
467600000,-60.6786882584047,0,0,0
468050000,-61.1880760908252,0,0,0
468500000,-55.0213949746754,0,0,0
468950000,-50.7325757109834,0,0,0
469400000,-56.8257577697792,0,0,0
469850000,-59.7043112163381,0,0,0
470300000,-62.8392744364676,0,0,0
470750000,-55.5327143340071,0,0,0
471200000,-47.3037623201333,0,0,0
471650000,-58.2750984015968,0,0,0
472100000,-68.2254990798882,0,0,0
472550000,-58.502354883942,0,0,0
473000000,-56.6809523453129,0,0,0
473450000,-51.3225727153956,0,0,0
473900000,-54.3211930817172,0,0,0
474350000,-61.1796184593571,0,0,0
474800000,-69.0967344440657,0,0,0
475250000,-70.4775192609027,0,0,0
475700000,-48.408980090396,0,0,0
476150000,-52.8845901230245,0,0,0
476600000,-62.8232924135553,0,0,0
477050000,-56.191345260976,0,0,0
477500000,-70.0749485195904,0,0,0
477950000,-51.1727344122741,0,0,0
478400000,-66.5966903111528,0,0,0
478850000,-73.3684361317055,0,0,0
479300000,-53.0640804945963,0,0,0
479750000,-58.6610425725295,0,0,0
480200000,-49.0912351169402,0,0,0
480650000,-51.6594398549022,0,0,0
481100000,-55.4008403209558,0,0,0
481550000,-61.1430880703641,0,0,0
482000000,-49.7949894695009,0,0,0
482450000,-63.6406886102985,0,0,0
482900000,-51.3965236594082,0,0,0
483350000,-67.2710167808007,0,0,0
483800000,-48.8517898298027,0,0,0
484250000,-59.895286552548,0,0,0
484700000,-52.8498091095911,0,0,0
485150000,-52.5677435504368,0,0,0
485600000,-54.9154431050534,0,0,0
486050000,-51.4033254559159,0,0,0
486500000,-60.182861538929,0,0,0
486950000,-67.1710865225815,0,0,0
487400000,-48.5352282525117,0,0,0
487850000,-55.1325444541614,0,0,0
488300000,-58.1508812115982,0,0,0
488750000,-53.5037783541822,0,0,0
489200000,-56.101998471966,0,0,0
489650000,-61.3376397323421,0,0,0
490100000,-63.6128864351387,0,0,0
490550000,-58.1138376149452,0,0,0
491000000,-56.5658988877044,0,0,0
491450000,-57.0925076325216,0,0,0
491900000,-51.3092040557485,0,0,0
492350000,-61.0503412498269,0,0,0
492800000,-68.6494836652591,0,0,0
493250000,-53.7023726415232,0,0,0
493700000,-63.9735967570129,0,0,0
494150000,-52.8620476801245,0,0,0
494600000,-55.309437354046,0,0,0
495050000,-74.2034058320296,0,0,0
495500000,-54.4884355473928,0,0,0
495950000,-58.0582359277298,0,0,0
496400000,-50.9601122370214,0,0,0
496850000,-58.536965335554,0,0,0
497300000,-60.6613350440175,0,0,0
497750000,-66.0339483938786,0,0,0
498200000,-58.7724327212932,0,0,0
498650000,-59.9196058588166,0,0,0
499100000,-54.7667659642121,0,0,0
499550000,-62.1425151700374,0,0,0
500000000,-62.5361516004131,0,0,0
END
