! FILETYPE CSV
! VERSION 3.0,1
! TIMESTAMP Saturday, 23 September 2023 04:14:11
! TIMEZONE (UTC+08:00) Kuala Lumpur, Singapore
! NAME Keysight Technologies
! MODEL N9913B
! SERIAL MY61262579
! FIRMWARE_VERSION A.12.20
! CORRECTION 
! Application SA
! SA Frequency Scan
!  CenterFreq 275000000
!  SpanFreq 450000000
!  Num TracePoints 1001
!  ResolutionBW 3000000
!  VideoBW 3000000
!  RF Attenuation 35
!  Preamp ON
!  External Gain 0
!  Detector Positive
!  TraceAvgCount 1 / 1
! Trace TIMESTAMP: 2023-09-23 04:14:11Z
! Trace GPS Info...
! GPS Latitude: 
! GPS Longitude: 
! GPS Elevation (m): 
! GPS Seconds Since Last Read: 
! CHECKSUM 1686438283
! DATA Freq,SA Clear-Write,SA Blank,SA Blank,SA Blank
! FREQ UNIT Hz
! DATA UNIT dBm
BEGIN
50000000,-66.4195839726161,0,0,0
50450000,-58.3085286560861,0,0,0
50900000,-65.6123218317765,0,0,0
51350000,-51.0585535633264,0,0,0
51800000,-43.0562053748821,0,0,0
52250000,-60.0275618088968,0,0,0
52700000,-52.0594044825113,0,0,0
53150000,-63.7424140182136,0,0,0
53600000,-54.7305635235838,0,0,0
54050000,-65.3733042262791,0,0,0
54500000,-58.8124659332027,0,0,0
54950000,-38.9732498237994,0,0,0
55400000,-61.1482596136286,0,0,0
55850000,-49.9835732661527,0,0,0
56300000,-61.27982720455,0,0,0
56750000,-46.5356072838318,0,0,0
57200000,-63.3955666871728,0,0,0
57650000,-71.1662700846677,0,0,0
58100000,-63.7534689884799,0,0,0
58550000,-48.7030576154717,0,0,0
59000000,-53.0605145151217,0,0,0
59450000,-69.6094317125652,0,0,0
59900000,-38.9960239492784,0,0,0
60350000,-49.1392963480271,0,0,0
60800000,-66.812424802202,0,0,0
61250000,-56.8273162292578,0,0,0
61700000,-53.1349627084907,0,0,0
62150000,-59.9684584552318,0,0,0
62600000,-44.7296783341014,0,0,0
63050000,-56.6195446948268,0,0,0
63500000,-57.8211417335026,0,0,0
63950000,-55.89213958532,0,0,0
64400000,-46.9237731889323,0,0,0
64850000,-60.4015945092284,0,0,0
65300000,-49.8111153977943,0,0,0
65750000,-64.0757423556126,0,0,0
66200000,-57.3485897212349,0,0,0
66650000,-37.3283263170445,0,0,0
67100000,-40.0359117806534,0,0,0
67550000,-47.7928488568972,0,0,0
68000000,-67.4744868417032,0,0,0
68450000,-57.2160812429769,0,0,0
68900000,-38.0896479082265,0,0,0
69350000,-52.1574499707569,0,0,0
69800000,-44.5432476165138,0,0,0
70250000,-39.8117583128901,0,0,0
70700000,-44.4603324964426,0,0,0
71150000,-55.1675128473831,0,0,0
71600000,-48.107089190064,0,0,0
72050000,-45.7328094073878,0,0,0
72500000,-61.9460390302176,0,0,0
72950000,-64.0278806471273,0,0,0
73400000,-52.651729708401,0,0,0
73850000,-49.2518227932942,0,0,0
74300000,-67.2430809249286,0,0,0
74750000,-74.2218786783971,0,0,0
75200000,-52.2998717519428,0,0,0
75650000,-57.3997103219951,0,0,0
76100000,-62.1287408273486,0,0,0
76550000,-54.1301422702938,0,0,0
77000000,-77.1045376622539,0,0,0
77450000,-54.4493790245286,0,0,0
77900000,-60.8947228187199,0,0,0
78350000,-63.7973538943389,0,0,0
78800000,-50.7269960615307,0,0,0
79250000,-49.9690221463212,0,0,0
79700000,-66.2482278068894,0,0,0
80150000,-75.2994001351817,0,0,0
80600000,-59.0930336146296,0,0,0
81050000,-73.7431526127881,0,0,0
81500000,-61.2715356833378,0,0,0
81950000,-64.0041567381471,0,0,0
82400000,-53.7784157623713,0,0,0
82850000,-58.8874058600861,0,0,0
83300000,-66.0545908400879,0,0,0
83750000,-56.6665978995764,0,0,0
84200000,-69.3919604357204,0,0,0
84650000,-59.1075736701653,0,0,0
85100000,-53.8889665391219,0,0,0
85550000,-57.4378455328973,0,0,0
86000000,-63.2651385293063,0,0,0
86450000,-54.2268347551067,0,0,0
86900000,-61.8135289400163,0,0,0
87350000,-57.3504427951636,0,0,0
87800000,-55.5890784596203,0,0,0
88250000,-57.8520803444715,0,0,0
88700000,-48.9666545787979,0,0,0
89150000,-46.4048521787372,0,0,0
89600000,-48.1499790130961,0,0,0
90050000,-44.1886154532751,0,0,0
90500000,-46.6767772565116,0,0,0
90950000,-47.8276348358841,0,0,0
91400000,-45.9233357168997,0,0,0
91850000,-45.1094140779096,0,0,0
92300000,-50.2834201726854,0,0,0
92750000,-48.5851703293612,0,0,0
93200000,-49.3411412372364,0,0,0
93650000,-53.1704425582224,0,0,0
94100000,-54.1053019231449,0,0,0
94550000,-63.27194609901,0,0,0
95000000,-49.3227485339491,0,0,0
95450000,-61.8996219051985,0,0,0
95900000,-59.8986660405161,0,0,0
96350000,-55.2149704189964,0,0,0
96800000,-57.8945051723154,0,0,0
97250000,-67.0133135585573,0,0,0
97700000,-52.1374173069948,0,0,0
98150000,-60.5330685161514,0,0,0
98600000,-55.7346676638577,0,0,0
99050000,-60.6059017022926,0,0,0
99500000,-61.8462825464314,0,0,0
99950000,-55.7112604002818,0,0,0
100400000,-53.8975377840967,0,0,0
100850000,-55.5487650492898,0,0,0
101300000,-69.5267702373932,0,0,0
101750000,-59.4047225806876,0,0,0
102200000,-62.4298133073613,0,0,0
102650000,-58.2640254703069,0,0,0
103100000,-65.6537351681857,0,0,0
103550000,-64.3328139386083,0,0,0
104000000,-61.4259864825512,0,0,0
104450000,-59.8632007347962,0,0,0
104900000,-57.6846502977771,0,0,0
105350000,-60.7654349562521,0,0,0
105800000,-55.6904549017929,0,0,0
106250000,-58.4120195382896,0,0,0
106700000,-60.5565110771036,0,0,0
107150000,-58.273566245128,0,0,0
107600000,-61.70612044649,0,0,0
108050000,-67.2296021210992,0,0,0
108500000,-51.6011653297645,0,0,0
108950000,-67.394194797133,0,0,0
109400000,-65.9310247068076,0,0,0
109850000,-64.3804396405714,0,0,0
110300000,-48.90951210549,0,0,0
110750000,-61.2346246495409,0,0,0
111200000,-66.702142736552,0,0,0
111650000,-63.3738545673448,0,0,0
112100000,-65.3778187862787,0,0,0
112550000,-54.4601511470367,0,0,0
113000000,-63.4416891123774,0,0,0
113450000,-52.7375214595899,0,0,0
113900000,-60.4844919282328,0,0,0
114350000,-60.7226615411269,0,0,0
114800000,-61.6081026465875,0,0,0
115250000,-48.4393281014754,0,0,0
115700000,-60.2003091385512,0,0,0
116150000,-51.2536540829414,0,0,0
116600000,-64.2210416682165,0,0,0
117050000,-58.5448622391639,0,0,0
117500000,-53.6249836455066,0,0,0
117950000,-61.0733338950904,0,0,0
118400000,-60.461147656449,0,0,0
118850000,-59.0008702635223,0,0,0
119300000,-57.4205629374414,0,0,0
119750000,-55.3361383226182,0,0,0
120200000,-67.7493729305129,0,0,0
120650000,-65.7925270724324,0,0,0
121100000,-69.5377173541882,0,0,0
121550000,-60.6874135263569,0,0,0
122000000,-54.6489728549879,0,0,0
122450000,-54.5197773384308,0,0,0
122900000,-68.035472015548,0,0,0
123350000,-65.885488208739,0,0,0
123800000,-60.7860779311017,0,0,0
124250000,-55.298201755854,0,0,0
124700000,-66.0385974762594,0,0,0
125150000,-56.6993217639436,0,0,0
125600000,-54.4520303176115,0,0,0
126050000,-62.4578153825918,0,0,0
126500000,-64.8785727651523,0,0,0
126950000,-62.6185494151349,0,0,0
127400000,-66.3896714648307,0,0,0
127850000,-53.9498356751971,0,0,0
128300000,-56.2192190674246,0,0,0
128750000,-70.1448386635396,0,0,0
129200000,-58.9033656506486,0,0,0
129650000,-56.6278996604106,0,0,0
130100000,-56.5215683085813,0,0,0
130550000,-68.156332825372,0,0,0
131000000,-62.9301921332286,0,0,0
131450000,-63.9009439647441,0,0,0
131900000,-64.3837712330184,0,0,0
132350000,-59.4223155972434,0,0,0
132800000,-60.4669856016395,0,0,0
133250000,-67.3271053683936,0,0,0
133700000,-62.1102891795074,0,0,0
134150000,-55.4704610275623,0,0,0
134600000,-55.2362138989667,0,0,0
135050000,-59.4044052130422,0,0,0
135500000,-59.6590157452153,0,0,0
135950000,-60.6526278769108,0,0,0
136400000,-63.7871825487672,0,0,0
136850000,-55.5427645266203,0,0,0
137300000,-50.6529422189086,0,0,0
137750000,-62.6085419691527,0,0,0
138200000,-40.0320424928432,0,0,0
138650000,-64.0309651719658,0,0,0
139100000,-54.993027215682,0,0,0
139550000,-58.3975397949369,0,0,0
140000000,-67.3137446944889,0,0,0
140450000,-60.9531478654232,0,0,0
140900000,-64.0002217667963,0,0,0
141350000,-52.4555534351702,0,0,0
141800000,-63.3696749308321,0,0,0
142250000,-63.9680857920503,0,0,0
142700000,-69.2014688359562,0,0,0
143150000,-64.9987622743894,0,0,0
143600000,-61.8909688209117,0,0,0
144050000,-52.1707142354285,0,0,0
144500000,-60.0162623424301,0,0,0
144950000,-52.644162562004,0,0,0
145400000,-56.7834630847409,0,0,0
145850000,-61.8518877902643,0,0,0
146300000,-56.3630563240984,0,0,0
146750000,-55.1425587370978,0,0,0
147200000,-59.8343239288726,0,0,0
147650000,-68.9952295614556,0,0,0
148100000,-63.7832433326301,0,0,0
148550000,-59.1136201911974,0,0,0
149000000,-55.7924304510711,0,0,0
149450000,-55.293077932378,0,0,0
149900000,-46.2658992531627,0,0,0
150350000,-53.6625663313122,0,0,0
150800000,-52.8218880383014,0,0,0
151250000,-56.0896393151959,0,0,0
151700000,-49.7039205772993,0,0,0
152150000,-56.4841155734252,0,0,0
152600000,-53.0281837056736,0,0,0
153050000,-54.2507117463215,0,0,0
153500000,-52.1305794729265,0,0,0
153950000,-53.3525367716791,0,0,0
154400000,-57.6361444595202,0,0,0
154850000,-56.8686547157681,0,0,0
155300000,-59.5389353769656,0,0,0
155750000,-53.6264692063525,0,0,0
156200000,-62.2388494231966,0,0,0
156650000,-59.5670916329627,0,0,0
157100000,-57.9351198656458,0,0,0
157550000,-57.3845012388134,0,0,0
158000000,-56.0968489099632,0,0,0
158450000,-60.0879248761381,0,0,0
158900000,-66.7169945183831,0,0,0
159350000,-67.1775028145562,0,0,0
159800000,-58.6865846476524,0,0,0
160250000,-54.0928049640944,0,0,0
160700000,-62.0211003363999,0,0,0
161150000,-57.1085753261006,0,0,0
161600000,-60.2637467332603,0,0,0
162050000,-62.6174833398043,0,0,0
162500000,-53.7383188443501,0,0,0
162950000,-67.8383043788308,0,0,0
163400000,-57.3494506545865,0,0,0
163850000,-67.6250398758113,0,0,0
164300000,-75.234538068628,0,0,0
164750000,-62.6629301697842,0,0,0
165200000,-76.1203137870081,0,0,0
165650000,-58.4186535717038,0,0,0
166100000,-73.0697023348929,0,0,0
166550000,-61.5545584950383,0,0,0
167000000,-58.6900173330994,0,0,0
167450000,-62.7603463653841,0,0,0
167900000,-62.5226565001823,0,0,0
168350000,-65.6700267326596,0,0,0
168800000,-69.1682454488303,0,0,0
169250000,-63.3228039614674,0,0,0
169700000,-66.0096651387572,0,0,0
170150000,-63.3959664869107,0,0,0
170600000,-61.812139624051,0,0,0
171050000,-61.0079212915407,0,0,0
171500000,-56.7781775486939,0,0,0
171950000,-67.3083555943589,0,0,0
172400000,-63.5886745993288,0,0,0
172850000,-61.8436545080407,0,0,0
173300000,-60.9023870580808,0,0,0
173750000,-65.7441878755942,0,0,0
174200000,-72.44416821792,0,0,0
174650000,-57.6907189372969,0,0,0
175100000,-62.5551126016004,0,0,0
175550000,-58.4072445064614,0,0,0
176000000,-65.8946731714906,0,0,0
176450000,-67.6322836500529,0,0,0
176900000,-63.2534257654215,0,0,0
177350000,-74.3846635707759,0,0,0
177800000,-63.1258067067247,0,0,0
178250000,-69.8742239183186,0,0,0
178700000,-60.9282606637368,0,0,0
179150000,-68.2665864233147,0,0,0
179600000,-62.0881451633912,0,0,0
180050000,-61.3823277823586,0,0,0
180500000,-66.8489537190186,0,0,0
180950000,-64.0004436405886,0,0,0
181400000,-58.4406769772583,0,0,0
181850000,-65.3620233928734,0,0,0
182300000,-63.6423537582584,0,0,0
182750000,-69.5866728785996,0,0,0
183200000,-63.537387520788,0,0,0
183650000,-64.0557199463783,0,0,0
184100000,-58.4266495463056,0,0,0
184550000,-62.0377125720913,0,0,0
185000000,-69.8693068909182,0,0,0
185450000,-60.296006785741,0,0,0
185900000,-56.3612065289279,0,0,0
186350000,-65.7677223736576,0,0,0
186800000,-71.4104815331261,0,0,0
187250000,-65.1458226968998,0,0,0
187700000,-72.8238052896701,0,0,0
188150000,-72.2466145583813,0,0,0
188600000,-61.1238747081123,0,0,0
189050000,-63.5023864498217,0,0,0
189500000,-57.1369334249289,0,0,0
189950000,-73.5662243145641,0,0,0
190400000,-56.5307122963158,0,0,0
190850000,-76.4674259550754,0,0,0
191300000,-67.9193134631731,0,0,0
191750000,-67.0496416423525,0,0,0
192200000,-63.4797592358539,0,0,0
192650000,-59.7134225414352,0,0,0
193100000,-64.7582182018735,0,0,0
193550000,-59.6491602118329,0,0,0
194000000,-81.439656600426,0,0,0
194450000,-65.0518737661282,0,0,0
194900000,-60.7866911980649,0,0,0
195350000,-60.722977543713,0,0,0
195800000,-61.4135709450379,0,0,0
196250000,-62.1029545655735,0,0,0
196700000,-58.9449704399175,0,0,0
197150000,-60.1525821498078,0,0,0
197600000,-66.2104785041347,0,0,0
198050000,-63.7677180500336,0,0,0
198500000,-65.4194249689441,0,0,0
198950000,-57.5516109977632,0,0,0
199400000,-57.3181327938829,0,0,0
199850000,-64.624733112142,0,0,0
200300000,-57.7982697455983,0,0,0
200750000,-60.7343827254457,0,0,0
201200000,-69.7397909072538,0,0,0
201650000,-55.3510999253289,0,0,0
202100000,-59.0767102089828,0,0,0
202550000,-58.7844689412776,0,0,0
203000000,-53.6656991144222,0,0,0
203450000,-59.7924861671352,0,0,0
203900000,-70.0697913900316,0,0,0
204350000,-56.0691421506418,0,0,0
204800000,-61.2898061416686,0,0,0
205250000,-59.5832511016946,0,0,0
205700000,-62.7210346907844,0,0,0
206150000,-66.7804273627555,0,0,0
206600000,-62.944817810626,0,0,0
207050000,-62.0051753929739,0,0,0
207500000,-57.169200261314,0,0,0
207950000,-61.0346890246256,0,0,0
208400000,-69.3110733135182,0,0,0
208850000,-52.618263232023,0,0,0
209300000,-74.2181368492828,0,0,0
209750000,-52.0723132398354,0,0,0
210200000,-64.6569661543933,0,0,0
210650000,-77.4466511914107,0,0,0
211100000,-60.2030973403593,0,0,0
211550000,-68.1776599554504,0,0,0
212000000,-63.6351929785701,0,0,0
212450000,-64.3766403323832,0,0,0
212900000,-69.3529180558537,0,0,0
213350000,-65.2815517495945,0,0,0
213800000,-63.2089120529832,0,0,0
214250000,-62.40239711191,0,0,0
214700000,-63.9202478115642,0,0,0
215150000,-65.6561256922194,0,0,0
215600000,-64.5417359416047,0,0,0
216050000,-55.8845231534669,0,0,0
216500000,-65.6366386442563,0,0,0
216950000,-55.3115381442201,0,0,0
217400000,-64.1976398703987,0,0,0
217850000,-60.3021298594176,0,0,0
218300000,-68.5952954413577,0,0,0
218750000,-61.2281724435293,0,0,0
219200000,-60.8869033452389,0,0,0
219650000,-60.8022401647631,0,0,0
220100000,-69.8462733352627,0,0,0
220550000,-75.2030915013043,0,0,0
221000000,-66.4190279583607,0,0,0
221450000,-54.711458007324,0,0,0
221900000,-63.2313180086059,0,0,0
222350000,-63.0483059506037,0,0,0
222800000,-62.6055259815613,0,0,0
223250000,-62.8723205343951,0,0,0
223700000,-61.7535562834582,0,0,0
224150000,-63.4723370825453,0,0,0
224600000,-63.9389951889443,0,0,0
225050000,-64.7704787161317,0,0,0
225500000,-65.2015573004884,0,0,0
225950000,-61.8046499736456,0,0,0
226400000,-69.9082788784104,0,0,0
226850000,-67.4678211923841,0,0,0
227300000,-57.4335810107076,0,0,0
227750000,-67.5905351828124,0,0,0
228200000,-65.2579864757398,0,0,0
228650000,-74.2896354069238,0,0,0
229100000,-66.0927567995005,0,0,0
229550000,-57.6964245117692,0,0,0
230000000,-72.7196614958744,0,0,0
230450000,-80.5511220688095,0,0,0
230900000,-62.979917004449,0,0,0
231350000,-65.2727505746984,0,0,0
231800000,-61.8258046173571,0,0,0
232250000,-59.9379367299714,0,0,0
232700000,-61.9904899104508,0,0,0
233150000,-73.896712995331,0,0,0
233600000,-58.4303955363173,0,0,0
234050000,-59.2077069759091,0,0,0
234500000,-59.4470497765976,0,0,0
234950000,-75.8717968145697,0,0,0
235400000,-68.6739640171887,0,0,0
235850000,-66.1954376098078,0,0,0
236300000,-66.2923317303627,0,0,0
236750000,-65.9416127857261,0,0,0
237200000,-63.2370273256058,0,0,0
237650000,-60.7922792914257,0,0,0
238100000,-71.520798458933,0,0,0
238550000,-68.2879915801492,0,0,0
239000000,-65.7252512778202,0,0,0
239450000,-65.9229126272103,0,0,0
239900000,-62.7158190252794,0,0,0
240350000,-64.9395267462624,0,0,0
240800000,-64.2449581895161,0,0,0
241250000,-58.5604148987643,0,0,0
241700000,-81.9664494563463,0,0,0
242150000,-55.7314815116658,0,0,0
242600000,-57.7020125038,0,0,0
243050000,-58.6420553556522,0,0,0
243500000,-59.0950047857484,0,0,0
243950000,-64.5617542232481,0,0,0
244400000,-70.8477250191551,0,0,0
244850000,-60.6835934145797,0,0,0
245300000,-60.3826966243427,0,0,0
245750000,-66.1046598390982,0,0,0
246200000,-61.1154449818298,0,0,0
246650000,-57.0459387473326,0,0,0
247100000,-61.0443055850746,0,0,0
247550000,-64.641766843422,0,0,0
248000000,-58.3932773747096,0,0,0
248450000,-66.4279203115761,0,0,0
248900000,-65.9875059239677,0,0,0
249350000,-60.2332093469778,0,0,0
249800000,-75.7821811381859,0,0,0
250250000,-66.2362391496922,0,0,0
250700000,-63.7589891399792,0,0,0
251150000,-60.6539555790165,0,0,0
251600000,-72.5020938059779,0,0,0
252050000,-62.0268206863919,0,0,0
252500000,-59.58770983028,0,0,0
252950000,-70.121596717602,0,0,0
253400000,-59.18831081557,0,0,0
253850000,-58.5045085012256,0,0,0
254300000,-63.6600790178197,0,0,0
254750000,-57.6333681201156,0,0,0
255200000,-64.0305175357635,0,0,0
255650000,-71.3151921191325,0,0,0
256100000,-66.1236032381123,0,0,0
256550000,-67.4964831911849,0,0,0
257000000,-59.1956689040673,0,0,0
257450000,-62.062443954601,0,0,0
257900000,-66.1575830720646,0,0,0
258350000,-69.2722580857531,0,0,0
258800000,-60.2337772224982,0,0,0
259250000,-62.9783887149218,0,0,0
259700000,-60.5951099801968,0,0,0
260150000,-65.2577006346109,0,0,0
260600000,-71.1343122080786,0,0,0
261050000,-65.8818182458672,0,0,0
261500000,-63.7943404369964,0,0,0
261950000,-60.6526781084054,0,0,0
262400000,-61.7515367570894,0,0,0
262850000,-64.214866885619,0,0,0
263300000,-67.3259153231134,0,0,0
263750000,-59.3892994510787,0,0,0
264200000,-64.1667559704699,0,0,0
264650000,-67.3594102336358,0,0,0
265100000,-57.4961617918817,0,0,0
265550000,-64.7535201545747,0,0,0
266000000,-58.8574894299641,0,0,0
266450000,-56.331829215097,0,0,0
266900000,-61.2470570490047,0,0,0
267350000,-59.989369258751,0,0,0
267800000,-66.762748189125,0,0,0
268250000,-59.6758230754577,0,0,0
268700000,-62.1905731199706,0,0,0
269150000,-68.5132409695771,0,0,0
269600000,-60.8179643932814,0,0,0
270050000,-56.4223449472904,0,0,0
270500000,-67.0185595506658,0,0,0
270950000,-68.0667742343293,0,0,0
271400000,-67.1473730580937,0,0,0
271850000,-66.9805677916601,0,0,0
272300000,-58.5437598711625,0,0,0
272750000,-63.9978256573822,0,0,0
273200000,-60.9432687279698,0,0,0
273650000,-63.3875124278201,0,0,0
274100000,-62.8191178364835,0,0,0
274550000,-58.2050384050435,0,0,0
275000000,-60.1488519127711,0,0,0
275450000,-68.9935216999015,0,0,0
275900000,-71.1700899743197,0,0,0
276350000,-70.8380445403712,0,0,0
276800000,-78.61703564977,0,0,0
277250000,-63.3877340085038,0,0,0
277700000,-56.9225605312885,0,0,0
278150000,-67.628153862361,0,0,0
278600000,-58.5366297404414,0,0,0
279050000,-57.8031308602787,0,0,0
279500000,-71.4624006208824,0,0,0
279950000,-71.7895432792401,0,0,0
280400000,-67.6432948932767,0,0,0
280850000,-67.7606477820047,0,0,0
281300000,-59.0358342934919,0,0,0
281750000,-55.1789664859005,0,0,0
282200000,-56.9064420500742,0,0,0
282650000,-76.1898333508835,0,0,0
283100000,-66.5759114200956,0,0,0
283550000,-57.2119968041636,0,0,0
284000000,-61.1817349594655,0,0,0
284450000,-61.844518535932,0,0,0
284900000,-62.255253241463,0,0,0
285350000,-65.2258585022615,0,0,0
285800000,-63.3789996065174,0,0,0
286250000,-65.2212831806903,0,0,0
286700000,-59.6253911607928,0,0,0
287150000,-60.6223082316531,0,0,0
287600000,-67.8412854234052,0,0,0
288050000,-58.7909065401773,0,0,0
288500000,-58.0155468218976,0,0,0
288950000,-64.0548057438442,0,0,0
289400000,-71.2646080160874,0,0,0
289850000,-68.4129730220303,0,0,0
290300000,-60.0137144341342,0,0,0
290750000,-64.3117697141957,0,0,0
291200000,-75.8809841329196,0,0,0
291650000,-74.7241607054351,0,0,0
292100000,-64.0486784457984,0,0,0
292550000,-59.3714409398709,0,0,0
293000000,-66.2273362497934,0,0,0
293450000,-64.4752566275606,0,0,0
293900000,-62.3335965539814,0,0,0
294350000,-63.039712658386,0,0,0
294800000,-64.3556028087508,0,0,0
295250000,-60.6695363406159,0,0,0
295700000,-57.8269646694934,0,0,0
296150000,-66.1826044903592,0,0,0
296600000,-67.9336369047786,0,0,0
297050000,-69.07193668946,0,0,0
297500000,-63.1292981734016,0,0,0
297950000,-65.7304233248796,0,0,0
298400000,-77.9100135603274,0,0,0
298850000,-62.196856750087,0,0,0
299300000,-67.5283349507472,0,0,0
299750000,-62.9040665089619,0,0,0
300200000,-69.1756970480758,0,0,0
300650000,-64.5117027417014,0,0,0
301100000,-59.6660369788007,0,0,0
301550000,-57.0873050784082,0,0,0
302000000,-58.3555089566776,0,0,0
302450000,-75.7960555199702,0,0,0
302900000,-63.8096848728249,0,0,0
303350000,-60.8255982084368,0,0,0
303800000,-66.6351688166796,0,0,0
304250000,-57.9426339083572,0,0,0
304700000,-60.9586047847754,0,0,0
305150000,-61.4227592549083,0,0,0
305600000,-63.0312931776908,0,0,0
306050000,-56.2142642601047,0,0,0
306500000,-64.5056039728391,0,0,0
306950000,-73.5037512929863,0,0,0
307400000,-70.6625767579734,0,0,0
307850000,-58.3920153844614,0,0,0
308300000,-67.1314089245092,0,0,0
308750000,-64.8320090472822,0,0,0
309200000,-67.2732307234911,0,0,0
309650000,-69.8180630298383,0,0,0
310100000,-63.6342139324009,0,0,0
310550000,-63.3310309727184,0,0,0
311000000,-77.6634249893568,0,0,0
311450000,-57.9402370979496,0,0,0
311900000,-63.3023498026477,0,0,0
312350000,-61.0583883267288,0,0,0
312800000,-66.0332155516564,0,0,0
313250000,-72.9539045498459,0,0,0
313700000,-59.061773834364,0,0,0
314150000,-63.4648546533436,0,0,0
314600000,-66.9890968818385,0,0,0
315050000,-74.5740151121195,0,0,0
315500000,-60.0482686660374,0,0,0
315950000,-69.3919583666819,0,0,0
316400000,-66.3786856354377,0,0,0
316850000,-62.515623515416,0,0,0
317300000,-56.4267507242802,0,0,0
317750000,-62.0877343784526,0,0,0
318200000,-56.8320790054189,0,0,0
318650000,-64.1343580170549,0,0,0
319100000,-67.9353403808617,0,0,0
319550000,-62.7378577619724,0,0,0
320000000,-60.8162950130455,0,0,0
320450000,-66.5882553506823,0,0,0
320900000,-64.5319954044243,0,0,0
321350000,-81.400557498648,0,0,0
321800000,-66.8955040533745,0,0,0
322250000,-59.7046212555462,0,0,0
322700000,-70.4508226364054,0,0,0
323150000,-68.5634804399793,0,0,0
323600000,-65.0928773212711,0,0,0
324050000,-65.4331037455347,0,0,0
324500000,-65.3373970559811,0,0,0
324950000,-54.9137366290914,0,0,0
325400000,-56.5469951825098,0,0,0
325850000,-64.0398589871778,0,0,0
326300000,-70.584782722458,0,0,0
326750000,-56.2931468880293,0,0,0
327200000,-65.8092097027856,0,0,0
327650000,-58.8120388645253,0,0,0
328100000,-71.6886468093526,0,0,0
328550000,-60.2508145149313,0,0,0
329000000,-64.3468680633917,0,0,0
329450000,-60.6921596054682,0,0,0
329900000,-64.8837498186534,0,0,0
330350000,-63.5311591934919,0,0,0
330800000,-62.9451458802381,0,0,0
331250000,-63.1797944243603,0,0,0
331700000,-67.5433660708027,0,0,0
332150000,-59.7898881209081,0,0,0
332600000,-72.0532790855309,0,0,0
333050000,-60.6318598886073,0,0,0
333500000,-67.2495296561485,0,0,0
333950000,-69.0625977557542,0,0,0
334400000,-62.6603641011582,0,0,0
334850000,-63.5072534463763,0,0,0
335300000,-62.8944189764227,0,0,0
335750000,-72.9354425463489,0,0,0
336200000,-62.6722452354714,0,0,0
336650000,-59.1081239559511,0,0,0
337100000,-60.6152246790334,0,0,0
337550000,-64.0059775594992,0,0,0
338000000,-62.7223259935684,0,0,0
338450000,-83.8522429599561,0,0,0
338900000,-69.2728648135871,0,0,0
339350000,-76.8506905974999,0,0,0
339800000,-68.2086086866502,0,0,0
340250000,-66.3629254182521,0,0,0
340700000,-59.8871441520667,0,0,0
341150000,-59.9648623968999,0,0,0
341600000,-70.3183780950483,0,0,0
342050000,-64.6565911464906,0,0,0
342500000,-59.7721014830108,0,0,0
342950000,-66.7683871508446,0,0,0
343400000,-61.3779670817276,0,0,0
343850000,-64.0178038539026,0,0,0
344300000,-63.5823623873606,0,0,0
344750000,-62.1889428767794,0,0,0
345200000,-70.0430517826398,0,0,0
345650000,-59.8681606652643,0,0,0
346100000,-64.1572387436487,0,0,0
346550000,-59.0947865530792,0,0,0
347000000,-65.147252185234,0,0,0
347450000,-58.1407105984936,0,0,0
347900000,-75.1592022105211,0,0,0
348350000,-66.7309907680356,0,0,0
348800000,-61.7619603259612,0,0,0
349250000,-72.9466307406468,0,0,0
349700000,-61.3634513696106,0,0,0
350150000,-59.152651195513,0,0,0
350600000,-64.144399128108,0,0,0
351050000,-56.0833896858394,0,0,0
351500000,-72.1042500742674,0,0,0
351950000,-66.9241996984315,0,0,0
352400000,-60.3499916667848,0,0,0
352850000,-64.9005656984678,0,0,0
353300000,-64.2679662493157,0,0,0
353750000,-68.2141668224263,0,0,0
354200000,-64.2134104441096,0,0,0
354650000,-60.1049193134751,0,0,0
355100000,-61.2573217822733,0,0,0
355550000,-60.9154391211878,0,0,0
356000000,-71.3224205355497,0,0,0
356450000,-72.7739705405274,0,0,0
356900000,-71.8797907201537,0,0,0
357350000,-64.3787697713955,0,0,0
357800000,-61.6822942911055,0,0,0
358250000,-65.8827979582428,0,0,0
358700000,-62.6989813343167,0,0,0
359150000,-56.7868207530949,0,0,0
359600000,-70.9173057201586,0,0,0
360050000,-78.408102179857,0,0,0
360500000,-73.534360716375,0,0,0
360950000,-68.1611599859862,0,0,0
361400000,-61.872903381609,0,0,0
361850000,-62.1501383136482,0,0,0
362300000,-61.897305076606,0,0,0
362750000,-67.8111943597449,0,0,0
363200000,-62.8534239066525,0,0,0
363650000,-60.7798257567573,0,0,0
364100000,-62.3156551020226,0,0,0
364550000,-58.6832005440481,0,0,0
365000000,-71.4409950254166,0,0,0
365450000,-62.1260957832712,0,0,0
365900000,-57.2418220351526,0,0,0
366350000,-67.3473652563715,0,0,0
366800000,-72.2134904469734,0,0,0
367250000,-63.0383898831195,0,0,0
367700000,-57.0301546408978,0,0,0
368150000,-64.0177943087958,0,0,0
368600000,-68.1298379660637,0,0,0
369050000,-63.2517339495245,0,0,0
369500000,-58.6171680398808,0,0,0
369950000,-64.6342151687318,0,0,0
370400000,-56.4652045467992,0,0,0
370850000,-66.6604475625126,0,0,0
371300000,-58.3939261571688,0,0,0
371750000,-69.2773714873131,0,0,0
372200000,-60.953356906756,0,0,0
372650000,-59.9717497424339,0,0,0
373100000,-66.7517857926136,0,0,0
373550000,-70.3031400163666,0,0,0
374000000,-62.8632744644585,0,0,0
374450000,-59.517306899395,0,0,0
374900000,-61.1621870295857,0,0,0
375350000,-57.5002681385524,0,0,0
375800000,-57.9135791320711,0,0,0
376250000,-68.6382122355371,0,0,0
376700000,-62.1962753413001,0,0,0
377150000,-58.0117240265049,0,0,0
377600000,-68.1902184569808,0,0,0
378050000,-62.7694524427263,0,0,0
378500000,-64.7578214520476,0,0,0
378950000,-71.2217748115512,0,0,0
379400000,-57.59809403678,0,0,0
379850000,-65.8936390346324,0,0,0
380300000,-57.5846309282948,0,0,0
380750000,-59.6319568367133,0,0,0
381200000,-59.6263491882283,0,0,0
381650000,-67.2195844502389,0,0,0
382100000,-59.3425838617493,0,0,0
382550000,-64.7314446673998,0,0,0
383000000,-68.1210113914505,0,0,0
383450000,-55.1939683283465,0,0,0
383900000,-62.4968025526476,0,0,0
384350000,-68.121473050637,0,0,0
384800000,-61.3483138847457,0,0,0
385250000,-60.0273078865095,0,0,0
385700000,-65.8301365180174,0,0,0
386150000,-66.9624281727772,0,0,0
386600000,-63.1761038540387,0,0,0
387050000,-67.0957219198332,0,0,0
387500000,-59.2199655826685,0,0,0
387950000,-63.3178200864235,0,0,0
388400000,-61.1138883053877,0,0,0
388850000,-57.9146916594097,0,0,0
389300000,-66.4602900312247,0,0,0
389750000,-64.0928076380977,0,0,0
390200000,-67.9337422540724,0,0,0
390650000,-71.4920203320335,0,0,0
391100000,-62.8904351803039,0,0,0
391550000,-65.3406005159239,0,0,0
392000000,-62.7379205131278,0,0,0
392450000,-62.1564891787045,0,0,0
392900000,-59.900725903187,0,0,0
393350000,-59.7050454054041,0,0,0
393800000,-62.1149833542543,0,0,0
394250000,-61.9116294113415,0,0,0
394700000,-63.4415721968773,0,0,0
395150000,-65.5436360761079,0,0,0
395600000,-60.1636786125199,0,0,0
396050000,-61.7658505202974,0,0,0
396500000,-61.7375631274163,0,0,0
396950000,-61.3049538802302,0,0,0
397400000,-59.6109521592099,0,0,0
397850000,-61.0501337137181,0,0,0
398300000,-67.8691613966876,0,0,0
398750000,-61.9346736124613,0,0,0
399200000,-59.4942238320927,0,0,0
399650000,-65.8817317302676,0,0,0
400100000,-58.4185794850629,0,0,0
400550000,-65.3941297520702,0,0,0
401000000,-64.8103858837461,0,0,0
401450000,-60.9564234491028,0,0,0
401900000,-57.902368546419,0,0,0
402350000,-69.0157648292716,0,0,0
402800000,-69.1003956150999,0,0,0
403250000,-62.8186202292785,0,0,0
403700000,-60.9337615698409,0,0,0
404150000,-56.2966546259961,0,0,0
404600000,-59.1119445762582,0,0,0
405050000,-76.9041183437963,0,0,0
405500000,-56.6097036497122,0,0,0
405950000,-60.8108092062725,0,0,0
406400000,-62.9930724112037,0,0,0
406850000,-75.5012177283384,0,0,0
407300000,-66.9553149745981,0,0,0
407750000,-56.6269268489567,0,0,0
408200000,-66.5972478508535,0,0,0
408650000,-67.402571698455,0,0,0
409100000,-65.6434881328171,0,0,0
409550000,-60.0885327560197,0,0,0
410000000,-60.9618053027746,0,0,0
410450000,-62.4160467947239,0,0,0
410900000,-60.7172006336662,0,0,0
411350000,-71.5186147099091,0,0,0
411800000,-67.9364442593772,0,0,0
412250000,-61.1448117751063,0,0,0
412700000,-70.3233202369688,0,0,0
413150000,-69.0065970135529,0,0,0
413600000,-71.4067617472797,0,0,0
414050000,-65.9785112165981,0,0,0
414500000,-61.3786990942898,0,0,0
414950000,-65.0090315637226,0,0,0
415400000,-65.1942366465947,0,0,0
415850000,-65.9706268129216,0,0,0
416300000,-69.5076285830458,0,0,0
416750000,-58.4977378181122,0,0,0
417200000,-65.7027636990037,0,0,0
417650000,-75.3948189022526,0,0,0
418100000,-67.0260624776463,0,0,0
418550000,-61.8792743634061,0,0,0
419000000,-62.0293146846056,0,0,0
419450000,-64.2317289647217,0,0,0
419900000,-73.0573437838601,0,0,0
420350000,-65.7845427603439,0,0,0
420800000,-73.1815254378397,0,0,0
421250000,-60.8777952760315,0,0,0
421700000,-75.9440478589521,0,0,0
422150000,-64.2938300193765,0,0,0
422600000,-64.7998218432591,0,0,0
423050000,-58.7931508003505,0,0,0
423500000,-63.8954424052386,0,0,0
423950000,-66.4471662092798,0,0,0
424400000,-64.8662910991642,0,0,0
424850000,-59.418620186926,0,0,0
425300000,-61.8331034835002,0,0,0
425750000,-61.2308883624037,0,0,0
426200000,-66.1459936325879,0,0,0
426650000,-65.2299475880679,0,0,0
427100000,-68.1411892104191,0,0,0
427550000,-62.1850675477014,0,0,0
428000000,-62.3466812983176,0,0,0
428450000,-66.3784856342564,0,0,0
428900000,-63.2719326826693,0,0,0
429350000,-61.2873443644619,0,0,0
429800000,-68.3417513125083,0,0,0
430250000,-65.897939590956,0,0,0
430700000,-57.2490368194498,0,0,0
431150000,-65.1927132773058,0,0,0
431600000,-64.6870826793379,0,0,0
432050000,-69.8022130265587,0,0,0
432500000,-67.0763921120425,0,0,0
432950000,-64.8725814495984,0,0,0
433400000,-68.2610160933105,0,0,0
433850000,-63.3050092976341,0,0,0
434300000,-60.6183493823621,0,0,0
434750000,-66.4826343983957,0,0,0
435200000,-60.8826805029542,0,0,0
435650000,-64.4173639892353,0,0,0
436100000,-65.921071310279,0,0,0
436550000,-59.7301096510258,0,0,0
437000000,-61.5514077573738,0,0,0
437450000,-61.8144000136184,0,0,0
437900000,-67.3563572789107,0,0,0
438350000,-61.3919139323086,0,0,0
438800000,-67.1334995084214,0,0,0
439250000,-65.6526507485995,0,0,0
439700000,-63.4580340398039,0,0,0
440150000,-63.5131750203083,0,0,0
440600000,-72.7324876505951,0,0,0
441050000,-61.2238581043053,0,0,0
441500000,-61.2056752292851,0,0,0
441950000,-60.7755008004328,0,0,0
442400000,-64.3816907010701,0,0,0
442850000,-61.6825970172199,0,0,0
443300000,-66.7424148140935,0,0,0
443750000,-74.298695789653,0,0,0
444200000,-59.4517295097471,0,0,0
444650000,-65.6252596093731,0,0,0
445100000,-60.9183652401393,0,0,0
445550000,-59.2445305144695,0,0,0
446000000,-70.7492380044451,0,0,0
446450000,-58.5152962645565,0,0,0
446900000,-69.528956712607,0,0,0
447350000,-58.0729422961249,0,0,0
447800000,-60.8588557357487,0,0,0
448250000,-60.9312591101336,0,0,0
448700000,-55.9036492373419,0,0,0
449150000,-60.5390804254613,0,0,0
449600000,-63.0561762552866,0,0,0
450050000,-68.9442567360229,0,0,0
450500000,-58.5750287618386,0,0,0
450950000,-67.6728472390039,0,0,0
451400000,-61.2764660301283,0,0,0
451850000,-67.5579680284296,0,0,0
452300000,-62.0772812777508,0,0,0
452750000,-60.5353379070654,0,0,0
453200000,-58.5853386779404,0,0,0
453650000,-59.856918602551,0,0,0
454100000,-63.3212559618364,0,0,0
454550000,-68.4184776436717,0,0,0
455000000,-68.3178577074156,0,0,0
455450000,-60.3052515866238,0,0,0
455900000,-61.2296291062101,0,0,0
456350000,-63.6618641172763,0,0,0
456800000,-66.1483680164512,0,0,0
457250000,-63.1861999666238,0,0,0
457700000,-62.9228954051726,0,0,0
458150000,-62.5201896617185,0,0,0
458600000,-77.1686343087067,0,0,0
459050000,-62.8124211084787,0,0,0
459500000,-64.5570751388126,0,0,0
459950000,-63.9290128488046,0,0,0
460400000,-82.0866929340614,0,0,0
460850000,-62.9759995385881,0,0,0
461300000,-67.8515836375287,0,0,0
461750000,-57.2664154687001,0,0,0
462200000,-65.0673697195194,0,0,0
462650000,-66.2150527941305,0,0,0
463100000,-70.6209549405522,0,0,0
463550000,-62.707416160642,0,0,0
464000000,-58.6851152929015,0,0,0
464450000,-69.4853238891839,0,0,0
464900000,-62.7907624130036,0,0,0
465350000,-69.5959739492723,0,0,0
465800000,-64.196677001677,0,0,0
466250000,-64.2860286979717,0,0,0
466700000,-68.4258095988421,0,0,0
467150000,-65.4122462128798,0,0,0
467600000,-67.0424933373398,0,0,0
468050000,-58.330644243632,0,0,0
468500000,-62.5636474699977,0,0,0
468950000,-81.5019637893125,0,0,0
469400000,-58.9746165683869,0,0,0
469850000,-60.4299830618376,0,0,0
470300000,-69.8120948456235,0,0,0
470750000,-65.4973884037904,0,0,0
471200000,-77.3064630930742,0,0,0
471650000,-61.451100105411,0,0,0
472100000,-57.2698481660757,0,0,0
472550000,-62.6023336027499,0,0,0
473000000,-63.2923577603479,0,0,0
473450000,-62.6847113388979,0,0,0
473900000,-65.1228359885347,0,0,0
474350000,-63.7588676666749,0,0,0
474800000,-72.5786528014305,0,0,0
475250000,-62.0623236728941,0,0,0
475700000,-67.3536505465487,0,0,0
476150000,-62.1017081906645,0,0,0
476600000,-68.8256048344644,0,0,0
477050000,-60.1700416351203,0,0,0
477500000,-66.0605719127463,0,0,0
477950000,-64.7096477140785,0,0,0
478400000,-62.0731282514734,0,0,0
478850000,-79.2486628718647,0,0,0
479300000,-63.2501473948175,0,0,0
479750000,-65.7064428536946,0,0,0
480200000,-63.9070235488355,0,0,0
480650000,-60.3480583249665,0,0,0
481100000,-61.2648202133708,0,0,0
481550000,-58.0400189434601,0,0,0
482000000,-68.010322160681,0,0,0
482450000,-67.5132696903401,0,0,0
482900000,-75.2776134988771,0,0,0
483350000,-64.3438520734433,0,0,0
483800000,-66.7071543180693,0,0,0
484250000,-67.8177321860871,0,0,0
484700000,-59.4217107789515,0,0,0
485150000,-62.4649296145393,0,0,0
485600000,-75.7494708136844,0,0,0
486050000,-70.7656404736966,0,0,0
486500000,-86.6626026507093,0,0,0
486950000,-59.8259618530757,0,0,0
487400000,-61.8291196670068,0,0,0
487850000,-68.5611845208385,0,0,0
488300000,-59.8260993043566,0,0,0
488750000,-67.0901984140454,0,0,0
489200000,-62.4229007729897,0,0,0
489650000,-66.7089030206208,0,0,0
490100000,-67.3103330062413,0,0,0
490550000,-57.376300762762,0,0,0
491000000,-65.0579326090187,0,0,0
491450000,-60.1130715749442,0,0,0
491900000,-63.2953980781582,0,0,0
492350000,-68.3386278437723,0,0,0
492800000,-66.2376259689347,0,0,0
493250000,-58.5033112823577,0,0,0
493700000,-66.9502734117289,0,0,0
494150000,-65.4208023542932,0,0,0
494600000,-78.7628617395514,0,0,0
495050000,-69.8283395810031,0,0,0
495500000,-69.4523445907798,0,0,0
495950000,-64.4825953334677,0,0,0
496400000,-59.0746849806379,0,0,0
496850000,-62.0892656121122,0,0,0
497300000,-58.6341543667445,0,0,0
497750000,-58.7015630372574,0,0,0
498200000,-68.99122361865,0,0,0
498650000,-65.4969215700854,0,0,0
499100000,-57.2232155020303,0,0,0
499550000,-66.5743134619703,0,0,0
500000000,-63.7645238657962,0,0,0
END
